transcript
# //  Questa Sim-64
# //  Version 10.7c linux_x86_64 Aug 17 2018
# //
# //  Copyright 1991-2018 Mentor Graphics Corporation
# //  All Rights Reserved.
# //
# //  QuestaSim and its associated documentation contain trade
# //  secrets and commercial or financial information that are the property of
# //  Mentor Graphics Corporation and are privileged, confidential,
# //  and exempt from disclosure under the Freedom of Information Act,
# //  5 U.S.C. Section 552. Furthermore, this information
# //  is prohibited from disclosure under the Trade Secrets Act,
# //  18 U.S.C. Section 1905.
# //
do testing_mbe
# Cannot open macro file: testing_mbe
cd sim
do ../testing_mbe.do
# QuestaSim-64 vcom 10.7c Compiler 2018.08 Aug 17 2018
# Start time: 10:25:09 on Mar 11,2021
# vcom -reportprogress 300 -93 -work ./work ../src/multiplier/FF.vhd 
# -- Loading package STANDARD
# -- Loading package TEXTIO
# -- Loading package std_logic_1164
# -- Loading package NUMERIC_STD
# -- Compiling entity FFN_EN_FP
# -- Compiling architecture BEHAVIOR of FFN_EN_FP
# End time: 10:25:09 on Mar 11,2021, Elapsed time: 0:00:00
# Errors: 0, Warnings: 0
# QuestaSim-64 vcom 10.7c Compiler 2018.08 Aug 17 2018
# Start time: 10:25:09 on Mar 11,2021
# vcom -reportprogress 300 -93 -work ./work ../src/common/fpnormalize_fpnormalize.vhd 
# -- Loading package STANDARD
# -- Loading package TEXTIO
# -- Loading package std_logic_1164
# -- Loading package std_logic_arith
# -- Loading package STD_LOGIC_UNSIGNED
# -- Compiling entity FPnormalize
# -- Compiling architecture FPnormalize of FPnormalize
# End time: 10:25:10 on Mar 11,2021, Elapsed time: 0:00:01
# Errors: 0, Warnings: 0
# QuestaSim-64 vcom 10.7c Compiler 2018.08 Aug 17 2018
# Start time: 10:25:10 on Mar 11,2021
# vcom -reportprogress 300 -93 -work ./work ../src/common/fpround_fpround.vhd 
# -- Loading package STANDARD
# -- Loading package TEXTIO
# -- Loading package std_logic_1164
# -- Loading package std_logic_arith
# -- Loading package STD_LOGIC_UNSIGNED
# -- Compiling entity FPround
# -- Compiling architecture FPround of FPround
# End time: 10:25:10 on Mar 11,2021, Elapsed time: 0:00:00
# Errors: 0, Warnings: 0
# QuestaSim-64 vcom 10.7c Compiler 2018.08 Aug 17 2018
# Start time: 10:25:10 on Mar 11,2021
# vcom -reportprogress 300 -93 -work ./work ../src/common/packfp_packfp.vhd 
# -- Loading package STANDARD
# -- Loading package TEXTIO
# -- Loading package std_logic_1164
# -- Loading package std_logic_arith
# -- Compiling entity PackFP
# -- Compiling architecture PackFP of PackFP
# End time: 10:25:10 on Mar 11,2021, Elapsed time: 0:00:00
# Errors: 0, Warnings: 0
# QuestaSim-64 vcom 10.7c Compiler 2018.08 Aug 17 2018
# Start time: 10:25:10 on Mar 11,2021
# vcom -reportprogress 300 -93 -work ./work ../src/common/unpackfp_unpackfp.vhd 
# -- Loading package STANDARD
# -- Loading package TEXTIO
# -- Loading package std_logic_1164
# -- Loading package std_logic_arith
# -- Compiling entity UnpackFP
# -- Compiling architecture UnpackFP of UnpackFP
# End time: 10:25:10 on Mar 11,2021, Elapsed time: 0:00:00
# Errors: 0, Warnings: 0
# QuestaSim-64 vcom 10.7c Compiler 2018.08 Aug 17 2018
# Start time: 10:25:10 on Mar 11,2021
# vcom -reportprogress 300 -93 -work ./work ../src/mbe/my_pkg.vhd 
# -- Loading package STANDARD
# -- Loading package TEXTIO
# -- Loading package std_logic_1164
# -- Loading package NUMERIC_STD
# -- Compiling package my_pkg
# -- Compiling package body my_pkg
# -- Loading package my_pkg
# End time: 10:25:11 on Mar 11,2021, Elapsed time: 0:00:01
# Errors: 0, Warnings: 0
# QuestaSim-64 vcom 10.7c Compiler 2018.08 Aug 17 2018
# Start time: 10:25:11 on Mar 11,2021
# vcom -reportprogress 300 -93 -work ./work ../src/mbe/partial_product_generator.vhd 
# -- Loading package STANDARD
# -- Loading package TEXTIO
# -- Loading package std_logic_1164
# -- Loading package std_logic_arith
# -- Compiling entity ppg
# -- Compiling architecture behavioral of ppg
# End time: 10:25:11 on Mar 11,2021, Elapsed time: 0:00:00
# Errors: 0, Warnings: 0
# QuestaSim-64 vcom 10.7c Compiler 2018.08 Aug 17 2018
# Start time: 10:25:11 on Mar 11,2021
# vcom -reportprogress 300 -93 -work ./work ../src/mbe/s_padder.vhd 
# -- Loading package STANDARD
# -- Loading package TEXTIO
# -- Loading package std_logic_1164
# -- Loading package std_logic_arith
# -- Loading package NUMERIC_STD
# -- Loading package my_pkg
# -- Compiling entity s_padder
# -- Compiling architecture behavioral of s_padder
# End time: 10:25:11 on Mar 11,2021, Elapsed time: 0:00:00
# Errors: 0, Warnings: 0
# QuestaSim-64 vcom 10.7c Compiler 2018.08 Aug 17 2018
# Start time: 10:25:11 on Mar 11,2021
# vcom -reportprogress 300 -93 -work ./work ../src/mbe/FA.vhd 
# -- Loading package STANDARD
# -- Loading package TEXTIO
# -- Loading package std_logic_1164
# -- Loading package std_logic_arith
# -- Compiling entity FA
# -- Compiling architecture behavioral of FA
# End time: 10:25:11 on Mar 11,2021, Elapsed time: 0:00:00
# Errors: 0, Warnings: 0
# QuestaSim-64 vcom 10.7c Compiler 2018.08 Aug 17 2018
# Start time: 10:25:11 on Mar 11,2021
# vcom -reportprogress 300 -93 -work ./work ../src/mbe/HA.vhd 
# -- Loading package STANDARD
# -- Loading package TEXTIO
# -- Loading package std_logic_1164
# -- Loading package std_logic_arith
# -- Compiling entity HA
# -- Compiling architecture behavioral of HA
# End time: 10:25:11 on Mar 11,2021, Elapsed time: 0:00:00
# Errors: 0, Warnings: 0
# QuestaSim-64 vcom 10.7c Compiler 2018.08 Aug 17 2018
# Start time: 10:25:11 on Mar 11,2021
# vcom -reportprogress 300 -93 -work ./work ../src/mbe/dadda_stage1.vhd 
# -- Loading package STANDARD
# -- Loading package TEXTIO
# -- Loading package std_logic_1164
# -- Loading package std_logic_arith
# -- Loading package NUMERIC_STD
# -- Loading package my_pkg
# -- Compiling entity dadda_stage1
# -- Compiling architecture behavioral of dadda_stage1
# End time: 10:25:12 on Mar 11,2021, Elapsed time: 0:00:01
# Errors: 0, Warnings: 0
# QuestaSim-64 vcom 10.7c Compiler 2018.08 Aug 17 2018
# Start time: 10:25:12 on Mar 11,2021
# vcom -reportprogress 300 -93 -work ./work ../src/mbe/dadda_stage2.vhd 
# -- Loading package STANDARD
# -- Loading package TEXTIO
# -- Loading package std_logic_1164
# -- Compiling entity DADDA_STAGE2
# -- Compiling architecture STRUCT of DADDA_STAGE2
# End time: 10:25:12 on Mar 11,2021, Elapsed time: 0:00:00
# Errors: 0, Warnings: 0
# QuestaSim-64 vcom 10.7c Compiler 2018.08 Aug 17 2018
# Start time: 10:25:12 on Mar 11,2021
# vcom -reportprogress 300 -93 -work ./work ../src/mbe/dadda_stage3.vhd 
# -- Loading package STANDARD
# -- Loading package TEXTIO
# -- Loading package std_logic_1164
# -- Loading package std_logic_arith
# -- Compiling entity dadda_stage3
# -- Compiling architecture behavioral of dadda_stage3
# End time: 10:25:12 on Mar 11,2021, Elapsed time: 0:00:00
# Errors: 0, Warnings: 0
# QuestaSim-64 vcom 10.7c Compiler 2018.08 Aug 17 2018
# Start time: 10:25:12 on Mar 11,2021
# vcom -reportprogress 300 -93 -work ./work ../src/mbe/dadda_stage4.vhd 
# -- Loading package STANDARD
# -- Loading package TEXTIO
# -- Loading package std_logic_1164
# -- Loading package std_logic_arith
# -- Compiling entity dadda_stage4
# -- Compiling architecture behavioral of dadda_stage4
# End time: 10:25:12 on Mar 11,2021, Elapsed time: 0:00:00
# Errors: 0, Warnings: 0
# QuestaSim-64 vcom 10.7c Compiler 2018.08 Aug 17 2018
# Start time: 10:25:12 on Mar 11,2021
# vcom -reportprogress 300 -93 -work ./work ../src/mbe/dadda_stage5.vhd 
# -- Loading package STANDARD
# -- Loading package TEXTIO
# -- Loading package std_logic_1164
# -- Loading package std_logic_arith
# -- Compiling entity dadda_stage5
# -- Compiling architecture behavioral of dadda_stage5
# End time: 10:25:13 on Mar 11,2021, Elapsed time: 0:00:01
# Errors: 0, Warnings: 0
# QuestaSim-64 vcom 10.7c Compiler 2018.08 Aug 17 2018
# Start time: 10:25:13 on Mar 11,2021
# vcom -reportprogress 300 -93 -work ./work ../src/mbe/dadda_stage6.vhd 
# -- Loading package STANDARD
# -- Loading package TEXTIO
# -- Loading package std_logic_1164
# -- Loading package std_logic_arith
# -- Compiling entity dadda_stage6
# -- Compiling architecture behavioral of dadda_stage6
# End time: 10:25:13 on Mar 11,2021, Elapsed time: 0:00:00
# Errors: 0, Warnings: 0
# QuestaSim-64 vcom 10.7c Compiler 2018.08 Aug 17 2018
# Start time: 10:25:13 on Mar 11,2021
# vcom -reportprogress 300 -93 -work ./work ../src/mbe/rca63.vhd 
# -- Loading package STANDARD
# -- Loading package TEXTIO
# -- Loading package std_logic_1164
# -- Loading package std_logic_arith
# -- Compiling entity rca63
# -- Compiling architecture behavioral of rca63
# End time: 10:25:13 on Mar 11,2021, Elapsed time: 0:00:00
# Errors: 0, Warnings: 0
# QuestaSim-64 vcom 10.7c Compiler 2018.08 Aug 17 2018
# Start time: 10:25:13 on Mar 11,2021
# vcom -reportprogress 300 -93 -work ./work ../src/mbe/dadda_tree.vhd 
# -- Loading package STANDARD
# -- Loading package TEXTIO
# -- Loading package std_logic_1164
# -- Loading package std_logic_arith
# -- Loading package NUMERIC_STD
# -- Loading package my_pkg
# -- Compiling entity dadda_tree
# -- Compiling architecture rtl of dadda_tree
# End time: 10:25:13 on Mar 11,2021, Elapsed time: 0:00:00
# Errors: 0, Warnings: 0
# QuestaSim-64 vcom 10.7c Compiler 2018.08 Aug 17 2018
# Start time: 10:25:13 on Mar 11,2021
# vcom -reportprogress 300 -93 -work ./work ../src/mbe/mbe.vhd 
# -- Loading package STANDARD
# -- Loading package TEXTIO
# -- Loading package std_logic_1164
# -- Loading package std_logic_arith
# -- Loading package NUMERIC_STD
# -- Loading package my_pkg
# -- Compiling entity mbe
# -- Compiling architecture rtl of mbe
# End time: 10:25:14 on Mar 11,2021, Elapsed time: 0:00:01
# Errors: 0, Warnings: 0
# QuestaSim-64 vlog 10.7c Compiler 2018.08 Aug 17 2018
# Start time: 10:25:14 on Mar 11,2021
# vlog -reportprogress 300 -sv ../tb/top.sv 
# ** Note: (vlog-2286) ../tb/top.sv(2): Using implicit +incdir+/software/mentor/questa10.7c/questasim/uvm-1.1d/../verilog_src/uvm-1.1d/src from import uvm_pkg
# -- Compiling package top_sv_unit
# -- Importing package mtiUvm.uvm_pkg (uvm-1.1d Built-in)
# ** Warning: ../tb/monitor.sv(49): (vlog-2240) Treating stand-alone use of function 'begin_tr' as an implicit VOID cast.
# ** Warning: ../tb/monitor_out.sv(48): (vlog-2240) Treating stand-alone use of function 'begin_tr' as an implicit VOID cast.
# -- Compiling module mbe_sv
# -- Compiling interface dut_if
# -- Compiling module DUT
# -- Compiling module top
# 
# Top level modules:
# 	top
# End time: 10:25:16 on Mar 11,2021, Elapsed time: 0:00:02
# Errors: 0, Warnings: 2
# vsim top 
# Start time: 10:25:16 on Mar 11,2021
# ** Note: (vsim-3812) Design is being optimized...
# ** Warning: ../tb/monitor.sv(49): (vopt-2240) Treating stand-alone use of function 'begin_tr' as an implicit VOID cast.
# ** Warning: ../tb/monitor_out.sv(48): (vopt-2240) Treating stand-alone use of function 'begin_tr' as an implicit VOID cast.
# Loading sv_std.std
# Loading mtiUvm.uvm_pkg
# Loading work.top_sv_unit(fast)
# Loading work.top(fast)
# Loading work.DUT(fast)
# Loading mtiUvm.questa_uvm_pkg(fast)
# Loading work.dut_if(fast)
# Loading std.standard
# Loading std.textio(body)
# Loading ieee.std_logic_1164(body)
# Loading ieee.std_logic_arith(body)
# Loading ieee.numeric_std(body)
# Loading work.my_pkg(body)
# Loading work.mbe(rtl)#1
# Loading work.dadda_stage1(behavioral)#1
# Loading work.dadda_stage2(struct)#1
# Loading work.dadda_stage3(behavioral)#1
# Loading work.dadda_stage4(behavioral)#1
# Loading work.dadda_stage5(behavioral)#1
# Loading work.dadda_stage6(behavioral)#1
# ** Warning: (vsim-3838) Variable '/top/out/data' written by continuous and procedural assignments. 
# One of the assignments is implicit. See ../src/DUT.sv(9).
#    Time: 0 ns  Iteration: 0  Instance: /top/sum File: ../src/DUT.sv Line: 3
# ** Warning: (vsim-3764) Stand-alone call to function 'begin_tr' treated as implicit void cast.
#    Time: 0 ns  Iteration: 0  Region: /top_sv_unit::driver File: ../tb/driver.sv Line: 67
# Loading /software/mentor/questa10.7c/questasim/uvm-1.1d/linux_x86_64/uvm_dpi.so
# ----------------------------------------------------------------
# UVM-1.1d
# (C) 2007-2013 Mentor Graphics Corporation
# (C) 2007-2013 Cadence Design Systems, Inc.
# (C) 2006-2013 Synopsys, Inc.
# (C) 2011-2013 Cypress Semiconductor Corp.
# ----------------------------------------------------------------
# 
#   ***********       IMPORTANT RELEASE NOTES         ************
# 
#   You are using a version of the UVM library that has been compiled
#   with `UVM_NO_DEPRECATED undefined.
#   See http://www.eda.org/svdb/view.php?id=3313 for more details.
# 
#   You are using a version of the UVM library that has been compiled
#   with `UVM_OBJECT_MUST_HAVE_CONSTRUCTOR undefined.
#   See http://www.eda.org/svdb/view.php?id=3770 for more details.
# 
#       (Specify +UVM_NO_RELNOTES to turn off this notice)
# 
# UVM_INFO verilog_src/questa_uvm_pkg-1.2/src/questa_uvm_pkg.sv(215) @ 0: reporter [Questa UVM] QUESTA_UVM-1.2.3
# UVM_INFO verilog_src/questa_uvm_pkg-1.2/src/questa_uvm_pkg.sv(216) @ 0: reporter [Questa UVM]  questa_uvm::init(+struct)
# UVM_INFO @ 0: reporter [RNTST] Running test simple_test...
# mbe: input A =  731014105, input B =  175121917, output OUT = work.DUT(fast)  128016591421639285
# mbe: input A = 00101011100100100110001111011001, input B = 00001010011100000010010111111101, output OUT = 0000000111000110110011100110100101100001000010110000101001110101
# refmod: input A =  731014105, input B =  175121917, output OUT = work.top_sv_unit(fast)  128016591421639285
# refmod: input A = 00101011100100100110001111011001, input B = 00001010011100000010010111111101, output OUT = 0000000111000110110011100110100101100001000010110000101001110101
# UVM_INFO @ 45: uvm_test_top.env_h.comp [Comparator Match] 
# mbe: input A =   80379531, input B = 2702342644, output OUT = work.DUT(fast)  217213034326019964
# mbe: input A = 00000100110010100111111010001011, input B = 10100001000100100111100111110100, output OUT = 0000001100000011101100100001101010010111100101100100111101111100
# refmod: input A =   80379531, input B = 2702342644, output OUT = work.top_sv_unit(fast)  217213034326019964
# refmod: input A = 00000100110010100111111010001011, input B = 10100001000100100111100111110100, output OUT = 0000001100000011101100100001101010010111100101100100111101111100
# UVM_INFO @ 75: uvm_test_top.env_h.comp [Comparator Match] 
# mbe: input A =  260878708, input B = 3812952346, output OUT = work.DUT(fast)  994718081690048968
# mbe: input A = 00001111100011001011000101110100, input B = 11100011010001010000100100011010, output OUT = 0000110111001101111100101101001100110110110010110001100111001000
# refmod: input A =  260878708, input B = 3812952346, output OUT = work.top_sv_unit(fast)  994718081690048968
# refmod: input A = 00001111100011001011000101110100, input B = 11100011010001010000100100011010, output OUT = 0000110111001101111100101101001100110110110010110001100111001000
# UVM_INFO @ 105: uvm_test_top.env_h.comp [Comparator Match] 
# mbe: input A = 4264621708, input B = 4099804783, output OUT = work.DUT(fast)17484116476144029364
# mbe: input A = 11111110001100001111011010001100, input B = 11110100010111100000111001101111, output OUT = 1111001010100100000011110100110011011100000111101000111010110100
# refmod: input A = 4264621708, input B = 4099804783, output OUT = work.top_sv_unit(fast)17484116476144029364
# refmod: input A = 11111110001100001111011010001100, input B = 11110100010111100000111001101111, output OUT = 1111001010100100000011110100110011011100000111101000111010110100
# UVM_INFO @ 135: uvm_test_top.env_h.comp [Comparator Match] 
# mbe: input A = 2682128719, input B = 3715728877, output OUT = work.DUT(fast) 9966063133019318563
# mbe: input A = 10011111110111100000100101001111, input B = 11011101011110011000010111101101, output OUT = 1000101001001110100100011001110111110100101110111010100100100011
# refmod: input A = 2682128719, input B = 3715728877, output OUT = work.top_sv_unit(fast) 9966063133019318563
# refmod: input A = 10011111110111100000100101001111, input B = 11011101011110011000010111101101, output OUT = 1000101001001110100100011001110111110100101110111010100100100011
# UVM_INFO @ 165: uvm_test_top.env_h.comp [Comparator Match] 
# mbe: input A =  140412694, input B = 1111608308, output OUT = work.DUT(fast)  156083917199061752
# mbe: input A = 00001000010111101000011100010110, input B = 01000010010000011100101111110100, output OUT = 0000001000101010100001010111111011100111110011010011001011111000
# refmod: input A =  140412694, input B = 1111608308, output OUT = work.top_sv_unit(fast)  156083917199061752
# refmod: input A = 00001000010111101000011100010110, input B = 01000010010000011100101111110100, output OUT = 0000001000101010100001010111111011100111110011010011001011111000
# UVM_INFO @ 195: uvm_test_top.env_h.comp [Comparator Match] 
# mbe: input A = 3761234779, input B = 3947285453, output OUT = work.DUT(fast)14846667328464369887
# mbe: input A = 11100000001011111110001101011011, input B = 11101011010001101100101111001101, output OUT = 1100111000001001111101010100011000110011100001000011100011011111
# refmod: input A = 3761234779, input B = 3947285453, output OUT = work.top_sv_unit(fast)14846667328464369887
# refmod: input A = 11100000001011111110001101011011, input B = 11101011010001101100101111001101, output OUT = 1100111000001001111101010100011000110011100001000011100011011111
# UVM_INFO @ 225: uvm_test_top.env_h.comp [Comparator Match] 
# mbe: input A = 2531376513, input B = 3371244592, output OUT = work.DUT(fast) 8533889379767067696
# mbe: input A = 10010110111000011011110110000001, input B = 11001000111100010001110000110000, output OUT = 0111011001101110011101110010110100101001011111101010010000110000
# refmod: input A = 2531376513, input B = 3371244592, output OUT = work.top_sv_unit(fast) 8533889379767067696
# refmod: input A = 10010110111000011011110110000001, input B = 11001000111100010001110000110000, output OUT = 0111011001101110011101110010110100101001011111101010010000110000
# UVM_INFO @ 255: uvm_test_top.env_h.comp [Comparator Match] 
# mbe: input A = 3872680796, input B = 3462746173, output OUT = work.DUT(fast)13410110605599593708
# mbe: input A = 11100110110101000110101101011100, input B = 11001110011001010101000000111101, output OUT = 1011101000011010010010001000101111000101011101100101010011101100
# refmod: input A = 3872680796, input B = 3462746173, output OUT = work.top_sv_unit(fast)13410110605599593708
# refmod: input A = 11100110110101000110101101011100, input B = 11001110011001010101000000111101, output OUT = 1011101000011010010010001000101111000101011101100101010011101100
# UVM_INFO @ 285: uvm_test_top.env_h.comp [Comparator Match] 
# mbe: input A = 2373230244, input B = 2938263881, output OUT = work.DUT(fast) 6973176707242016964
# mbe: input A = 10001101011101001001111010100100, input B = 10101111001000100101100101001001, output OUT = 0110000011000101101100110100010100001111001100000100000011000100
# refmod: input A = 2373230244, input B = 2938263881, output OUT = work.top_sv_unit(fast) 6973176707242016964
# refmod: input A = 10001101011101001001111010100100, input B = 10101111001000100101100101001001, output OUT = 0110000011000101101100110100010100001111001100000100000011000100
# UVM_INFO @ 315: uvm_test_top.env_h.comp [Comparator Match] 
# mbe: input A = 1541776121, input B = 1428688626, output OUT = work.DUT(fast) 2202718007911099746
# mbe: input A = 01011011111001011010001011111001, input B = 01010101001010000000111011110010, output OUT = 0001111010010001101000000101101110010001111001011010110101100010
# refmod: input A = 1541776121, input B = 1428688626, output OUT = work.top_sv_unit(fast) 2202718007911099746
# refmod: input A = 01011011111001011010001011111001, input B = 01010101001010000000111011110010, output OUT = 0001111010010001101000000101101110010001111001011010110101100010
# UVM_INFO @ 345: uvm_test_top.env_h.comp [Comparator Match] 
# mbe: input A = 3393944429, input B = 3716857736, output OUT = work.DUT(fast)12614808606482752744
# mbe: input A = 11001010010010110111101101101101, input B = 11011101100010101011111110001000, output OUT = 1010111100010000110011011001011101101010111100011110010011101000
# refmod: input A = 3393944429, input B = 3716857736, output OUT = work.top_sv_unit(fast)12614808606482752744
# refmod: input A = 11001010010010110111101101101101, input B = 11011101100010101011111110001000, output OUT = 1010111100010000110011011001011101101010111100011110010011101000
# UVM_INFO @ 375: uvm_test_top.env_h.comp [Comparator Match] 
# mbe: input A = 1712994403, input B =  601358051, output OUT = work.DUT(fast) 1030122975561988553
# mbe: input A = 01100110000110100011100001100011, input B = 00100011110101111111111011100011, output OUT = 0000111001001011101110110110001101110001010101110011100111001001
# refmod: input A = 1712994403, input B =  601358051, output OUT = work.top_sv_unit(fast) 1030122975561988553
# refmod: input A = 01100110000110100011100001100011, input B = 00100011110101111111111011100011, output OUT = 0000111001001011101110110110001101110001010101110011100111001001
# UVM_INFO @ 405: uvm_test_top.env_h.comp [Comparator Match] 
# mbe: input A = 3547324387, input B =  350842963, output OUT = work.DUT(fast) 1244553798657238681
# mbe: input A = 11010011011011111101111111100011, input B = 00010100111010010111000001010011, output OUT = 0001000101000101100010110001011000000000110100111110011010011001
# refmod: input A = 3547324387, input B =  350842963, output OUT = work.top_sv_unit(fast) 1244553798657238681
# refmod: input A = 11010011011011111101111111100011, input B = 00010100111010010111000001010011, output OUT = 0001000101000101100010110001011000000000110100111110011010011001
# UVM_INFO @ 435: uvm_test_top.env_h.comp [Comparator Match] 
# mbe: input A =   91952929, input B = 1965175865, output OUT = work.DUT(fast)  180703676786858585
# mbe: input A = 00000101011110110001011100100001, input B = 01110101001000100011010000111001, output OUT = 0000001010000001111111010000100101100000011111001101101001011001
# refmod: input A =   91952929, input B = 1965175865, output OUT = work.top_sv_unit(fast)  180703676786858585
# refmod: input A = 00000101011110110001011100100001, input B = 01110101001000100011010000111001, output OUT = 0000001010000001111111010000100101100000011111001101101001011001
# UVM_INFO @ 465: uvm_test_top.env_h.comp [Comparator Match] 
# mbe: input A = 3072927006, input B = 2608252870, output OUT = work.DUT(fast) 8014970682700007220
# mbe: input A = 10110111001010010010010100011110, input B = 10011011011101101100011111000110, output OUT = 0110111100111010111001010101111011101011100000010000011100110100
# refmod: input A = 3072927006, input B = 2608252870, output OUT = work.top_sv_unit(fast) 8014970682700007220
# refmod: input A = 10110111001010010010010100011110, input B = 10011011011101101100011111000110, output OUT = 0110111100111010111001010101111011101011100000010000011100110100
# UVM_INFO @ 495: uvm_test_top.env_h.comp [Comparator Match] 
# mbe: input A =  876184097, input B =  614306907, output OUT = work.DUT(fast)  538245942590657979
# mbe: input A = 00110100001110011000001000100001, input B = 00100100100111011001010001011011, output OUT = 0000011101111000001110111101010101000001111010010101010110111011
# refmod: input A =  876184097, input B =  614306907, output OUT = work.top_sv_unit(fast)  538245942590657979
# refmod: input A = 00110100001110011000001000100001, input B = 00100100100111011001010001011011, output OUT = 0000011101111000001110111101010101000001111010010101010110111011
# UVM_INFO @ 525: uvm_test_top.env_h.comp [Comparator Match] 
# mbe: input A = 1568767450, input B = 1075088082, output OUT = work.DUT(fast) 1686563188924530900
# mbe: input A = 01011101100000010111110111011010, input B = 01000000000101001000101011010010, output OUT = 0001011101100111111000000100100011010111000110001100000011010100
# refmod: input A = 1568767450, input B = 1075088082, output OUT = work.top_sv_unit(fast) 1686563188924530900
# refmod: input A = 01011101100000010111110111011010, input B = 01000000000101001000101011010010, output OUT = 0001011101100111111000000100100011010111000110001100000011010100
# UVM_INFO @ 555: uvm_test_top.env_h.comp [Comparator Match] 
# mbe: input A = 1678953407, input B =  444558830, output OUT = work.DUT(fast)  746393562240433810
# mbe: input A = 01100100000100101100101110111111, input B = 00011010011111110110110111101110, output OUT = 0000101001011011101110001111110110000011111110101011111010010010
# refmod: input A = 1678953407, input B =  444558830, output OUT = work.top_sv_unit(fast)  746393562240433810
# refmod: input A = 01100100000100101100101110111111, input B = 00011010011111110110110111101110, output OUT = 0000101001011011101110001111110110000011111110101011111010010010
# UVM_INFO @ 585: uvm_test_top.env_h.comp [Comparator Match] 
# mbe: input A = 1221817855, input B = 4159049667, output OUT = work.DUT(fast) 5081601142972404285
# mbe: input A = 01001000110100110111010111111111, input B = 11110111111001100000111111000011, output OUT = 0100011010000101011110010101000011101001000101101101001000111101
# refmod: input A = 1221817855, input B = 4159049667, output OUT = work.top_sv_unit(fast) 5081601142972404285
# refmod: input A = 01001000110100110111010111111111, input B = 11110111111001100000111111000011, output OUT = 0100011010000101011110010101000011101001000101101101001000111101
# UVM_INFO @ 615: uvm_test_top.env_h.comp [Comparator Match] 
# mbe: input A = 2630731409, input B =   42791131, output OUT = work.DUT(fast)  112571972348333579
# mbe: input A = 10011100110011011100011010010001, input B = 00000010100011001111000011011011, output OUT = 0000000110001111111011111001110011000111011111001100111000001011
# refmod: input A = 2630731409, input B =   42791131, output OUT = work.top_sv_unit(fast)  112571972348333579
# refmod: input A = 10011100110011011100011010010001, input B = 00000010100011001111000011011011, output OUT = 0000000110001111111011111001110011000111011111001100111000001011
# UVM_INFO @ 645: uvm_test_top.env_h.comp [Comparator Match] 
# mbe: input A = 2606837867, input B = 3476886790, output OUT = work.DUT(fast) 9063680143444076930
# mbe: input A = 10011011011000010011000001101011, input B = 11001111001111010001010100000110, output OUT = 0111110111001000101010010001000110101011101111101110100110000010
# refmod: input A = 2606837867, input B = 3476886790, output OUT = work.top_sv_unit(fast) 9063680143444076930
# refmod: input A = 10011011011000010011000001101011, input B = 11001111001111010001010100000110, output OUT = 0111110111001000101010010001000110101011101111101110100110000010
# UVM_INFO @ 675: uvm_test_top.env_h.comp [Comparator Match] 
# mbe: input A = 3413573445, input B = 2073383015, output OUT = work.DUT(fast) 7077645201318036675
# mbe: input A = 11001011011101101111111101000101, input B = 01111011100101010101000001100111, output OUT = 0110001000111000110110001100111111000110110011110100010011000011
# refmod: input A = 3413573445, input B = 2073383015, output OUT = work.top_sv_unit(fast) 7077645201318036675
# refmod: input A = 11001011011101101111111101000101, input B = 01111011100101010101000001100111, output OUT = 0110001000111000110110001100111111000110110011110100010011000011
# UVM_INFO @ 705: uvm_test_top.env_h.comp [Comparator Match] 
# mbe: input A = 2799892819, input B = 3816473543, output OUT = work.DUT(fast)10685716866949187717
# mbe: input A = 10100110111000101111100101010011, input B = 11100011011110101100001111000111, output OUT = 1001010001001011010010101110000000001000111010000000100010000101
# refmod: input A = 2799892819, input B = 3816473543, output OUT = work.top_sv_unit(fast)10685716866949187717
# refmod: input A = 10100110111000101111100101010011, input B = 11100011011110101100001111000111, output OUT = 1001010001001011010010101110000000001000111010000000100010000101
# UVM_INFO @ 735: uvm_test_top.env_h.comp [Comparator Match] 
# mbe: input A = 3038299759, input B = 3893807004, output OUT = work.DUT(fast)11830552881845712036
# mbe: input A = 10110101000110001100011001101111, input B = 11101000000101101100011110011100, output OUT = 1010010000101110100100010010101001000010111000110011010010100100
# refmod: input A = 3038299759, input B = 3893807004, output OUT = work.top_sv_unit(fast)11830552881845712036
# refmod: input A = 10110101000110001100011001101111, input B = 11101000000101101100011110011100, output OUT = 1010010000101110100100010010101001000010111000110011010010100100
# UVM_INFO @ 765: uvm_test_top.env_h.comp [Comparator Match] 
# mbe: input A = 1778436677, input B = 2353557030, output OUT = work.DUT(fast) 4185652143563189310
# mbe: input A = 01101010000000001100101001000101, input B = 10001100010010000110111000100110, output OUT = 0011101000010110011011000111001010110010011011111010110000111110
# refmod: input A = 1778436677, input B = 2353557030, output OUT = work.top_sv_unit(fast) 4185652143563189310
# refmod: input A = 01101010000000001100101001000101, input B = 10001100010010000110111000100110, output OUT = 0011101000010110011011000111001010110010011011111010110000111110
# UVM_INFO @ 795: uvm_test_top.env_h.comp [Comparator Match] 
# mbe: input A = 3087568070, input B =  357238882, output OUT = work.DUT(fast) 1102999365425697740
# mbe: input A = 10111000000010001000110011000110, input B = 00010101010010110000100001100010, output OUT = 0000111101001110101001000001010000110011101011100001001111001100
# refmod: input A = 3087568070, input B =  357238882, output OUT = work.top_sv_unit(fast) 1102999365425697740
# refmod: input A = 10111000000010001000110011000110, input B = 00010101010010110000100001100010, output OUT = 0000111101001110101001000001010000110011101011100001001111001100
# UVM_INFO @ 825: uvm_test_top.env_h.comp [Comparator Match] 
# mbe: input A = 3913605622, input B = 1385076643, output OUT = work.DUT(fast) 5420643736945686946
# mbe: input A = 11101001010001001110000111110110, input B = 01010010100011101001011110100011, output OUT = 0100101100111001111111101100001001001010100101111111100110100010
# refmod: input A = 3913605622, input B = 1385076643, output OUT = work.top_sv_unit(fast) 5420643736945686946
# refmod: input A = 11101001010001001110000111110110, input B = 01010010100011101001011110100011, output OUT = 0100101100111001111111101100001001001010100101111111100110100010
# UVM_INFO @ 855: uvm_test_top.env_h.comp [Comparator Match] 
# mbe: input A = 2067343682, input B =  977174398, output OUT = work.DUT(fast) 2020155317917453436
# mbe: input A = 01111011001110010010100101000010, input B = 00111010001111100111111101111110, output OUT = 0001110000001001000010001000111011110011100101100000110001111100
# refmod: input A = 2067343682, input B =  977174398, output OUT = work.top_sv_unit(fast) 2020155317917453436
# refmod: input A = 01111011001110010010100101000010, input B = 00111010001111100111111101111110, output OUT = 0001110000001001000010001000111011110011100101100000110001111100
# UVM_INFO @ 885: uvm_test_top.env_h.comp [Comparator Match] 
# mbe: input A =  378808866, input B = 1032434645, output OUT = work.DUT(fast)  391095397091562570
# mbe: input A = 00010110100101000010101000100010, input B = 00111101100010011011001111010101, output OUT = 0000010101101101011100110011000100001000111011101101010001001010
# refmod: input A =  378808866, input B = 1032434645, output OUT = work.top_sv_unit(fast)  391095397091562570
# refmod: input A = 00010110100101000010101000100010, input B = 00111101100010011011001111010101, output OUT = 0000010101101101011100110011000100001000111011101101010001001010
# UVM_INFO @ 915: uvm_test_top.env_h.comp [Comparator Match] 
# mbe: input A = 4125287197, input B = 2255869364, output OUT = work.DUT(fast) 9306109005413732708
# mbe: input A = 11110101111000101110001100011101, input B = 10000110011101011101010110110100, output OUT = 1000000100100101111100001101010110100100101111111101000101100100
# refmod: input A = 4125287197, input B = 2255869364, output OUT = work.top_sv_unit(fast) 9306109005413732708
