sim/3.test_results_mismatch.txt
# //  Questa Sim-64
# //  Version 10.7c linux_x86_64 Aug 17 2018
# //
# //  Copyright 1991-2018 Mentor Graphics Corporation
# //  All Rights Reserved.
# //
# //  QuestaSim and its associated documentation contain trade
# //  secrets and commercial or financial information that are the property of
# //  Mentor Graphics Corporation and are privileged, confidential,
# //  and exempt from disclosure under the Freedom of Information Act,
# //  5 U.S.C. Section 552. Furthermore, this information
# //  is prohibited from disclosure under the Trade Secrets Act,
# //  18 U.S.C. Section 1905.
# //
do ../testing_initial.do
# QuestaSim-64 vlog 10.7c Compiler 2018.08 Aug 17 2018
# Start time: 14:12:56 on Mar 12,2021
# vlog -reportprogress 300 -sv ../tb/top.sv 
# ** Note: (vlog-2286) ../tb/top.sv(2): Using implicit +incdir+/software/mentor/questa10.7c/questasim/uvm-1.1d/../verilog_src/uvm-1.1d/src from import uvm_pkg
# -- Compiling package top_sv_unit
# -- Importing package mtiUvm.uvm_pkg (uvm-1.1d Built-in)
# ** Warning: ../tb/monitor.sv(49): (vlog-2240) Treating stand-alone use of function 'begin_tr' as an implicit VOID cast.
# ** Warning: ../tb/monitor_out.sv(48): (vlog-2240) Treating stand-alone use of function 'begin_tr' as an implicit VOID cast.
# -- Compiling module adder
# -- Compiling interface dut_if
# -- Compiling module DUT
# -- Compiling module top
# 
# Top level modules:
# 	top
# End time: 14:13:00 on Mar 12,2021, Elapsed time: 0:00:04
# Errors: 0, Warnings: 2
# vsim top 
# Start time: 14:13:00 on Mar 12,2021
# ** Note: (vsim-3812) Design is being optimized...
# ** Warning: ../tb/monitor.sv(49): (vopt-2240) Treating stand-alone use of function 'begin_tr' as an implicit VOID cast.
# ** Warning: ../tb/monitor_out.sv(48): (vopt-2240) Treating stand-alone use of function 'begin_tr' as an implicit VOID cast.
# Loading sv_std.std
# Loading mtiUvm.uvm_pkg
# Loading work.top_sv_unit(fast)
# Loading work.top(fast)
# Loading work.DUT(fast)
# Loading mtiUvm.questa_uvm_pkg(fast)
# Loading work.dut_if(fast)
# ** Warning: (vsim-3838) Variable '/top/out/data' written by continuous and procedural assignments. 
# One of the assignments is implicit. See ../src/DUT.sv(9).
#    Time: 0 ns  Iteration: 0  Instance: /top/sum File: ../src/DUT.sv Line: 3
# ** Warning: (vsim-3764) Stand-alone call to function 'begin_tr' treated as implicit void cast.
#    Time: 0 ns  Iteration: 0  Region: /top_sv_unit::driver File: ../tb/driver.sv Line: 67
# Loading /software/mentor/questa10.7c/questasim/uvm-1.1d/linux_x86_64/uvm_dpi.so
# ----------------------------------------------------------------
# UVM-1.1d
# (C) 2007-2013 Mentor Graphics Corporation
# (C) 2007-2013 Cadence Design Systems, Inc.
# (C) 2006-2013 Synopsys, Inc.
# (C) 2011-2013 Cypress Semiconductor Corp.
# ----------------------------------------------------------------
# 
#   ***********       IMPORTANT RELEASE NOTES         ************
# 
#   You are using a version of the UVM library that has been compiled
#   with `UVM_NO_DEPRECATED undefined.
#   See http://www.eda.org/svdb/view.php?id=3313 for more details.
# 
#   You are using a version of the UVM library that has been compiled
#   with `UVM_OBJECT_MUST_HAVE_CONSTRUCTOR undefined.
#   See http://www.eda.org/svdb/view.php?id=3770 for more details.
# 
#       (Specify +UVM_NO_RELNOTES to turn off this notice)
# 
# UVM_INFO verilog_src/questa_uvm_pkg-1.2/src/questa_uvm_pkg.sv(215) @ 0: reporter [Questa UVM] QUESTA_UVM-1.2.3
# UVM_INFO verilog_src/questa_uvm_pkg-1.2/src/questa_uvm_pkg.sv(216) @ 0: reporter [Questa UVM]  questa_uvm::init(+struct)
# UVM_INFO @ 0: reporter [RNTST] Running test simple_test...
# adder: input A =        491, input B =       3094, output OUT =       3585
# adder: input A = 00000000000000000000000111101011, input B = 00000000000000000000110000010110, output OUT = 00000000000000000000111000000001
# refmod: input A =         491, input B =        3094, output OUT =       -2603
# refmod: input A = 00000000000000000000000111101011, input B = 00000000000000000000110000010110, output OUT = 11111111111111111111010111010101
# UVM_INFO @ 45: reporter [MISCMP] Miscompare for exp.data: lhs = 'hfffff5d5 : rhs = 'he01
# UVM_INFO @ 45: reporter [MISCMP] 1 Miscompare(s) for object tr@825 vs. exp@617
# UVM_WARNING @ 45: uvm_test_top.env_h.comp [Comparator Mismatch] 
# adder: input A =        677, input B =       4479, output OUT =       5156
# adder: input A = 00000000000000000000001010100101, input B = 00000000000000000001000101111111, output OUT = 00000000000000000001010000100100
# refmod: input A =         677, input B =        4479, output OUT =       -3802
# refmod: input A = 00000000000000000000001010100101, input B = 00000000000000000001000101111111, output OUT = 11111111111111111111000100100110
# UVM_INFO @ 75: reporter [MISCMP] Miscompare for exp.data: lhs = 'hfffff126 : rhs = 'h1424
# UVM_INFO @ 75: reporter [MISCMP] 1 Miscompare(s) for object tr@825 vs. exp@617
# UVM_WARNING @ 75: uvm_test_top.env_h.comp [Comparator Mismatch] 
# adder: input A =        337, input B =       2888, output OUT =       3225
# adder: input A = 00000000000000000000000101010001, input B = 00000000000000000000101101001000, output OUT = 00000000000000000000110010011001
# refmod: input A =         337, input B =        2888, output OUT =       -2551
# refmod: input A = 00000000000000000000000101010001, input B = 00000000000000000000101101001000, output OUT = 11111111111111111111011000001001
# UVM_INFO @ 105: reporter [MISCMP] Miscompare for exp.data: lhs = 'hfffff609 : rhs = 'hc99
# UVM_INFO @ 105: reporter [MISCMP] 1 Miscompare(s) for object tr@825 vs. exp@617
# UVM_WARNING @ 105: uvm_test_top.env_h.comp [Comparator Mismatch] 
# adder: input A =        653, input B =       4699, output OUT =       5352
# adder: input A = 00000000000000000000001010001101, input B = 00000000000000000001001001011011, output OUT = 00000000000000000001010011101000
# refmod: input A =         653, input B =        4699, output OUT =       -4046
# refmod: input A = 00000000000000000000001010001101, input B = 00000000000000000001001001011011, output OUT = 11111111111111111111000000110010
# UVM_INFO @ 135: reporter [MISCMP] Miscompare for exp.data: lhs = 'hfffff032 : rhs = 'h14e8
# UVM_INFO @ 135: reporter [MISCMP] 1 Miscompare(s) for object tr@825 vs. exp@617
# UVM_WARNING @ 135: uvm_test_top.env_h.comp [Comparator Mismatch] 
# adder: input A =        734, input B =       4773, output OUT =       5507
# adder: input A = 00000000000000000000001011011110, input B = 00000000000000000001001010100101, output OUT = 00000000000000000001010110000011
# refmod: input A =         734, input B =        4773, output OUT =       -4039
# refmod: input A = 00000000000000000000001011011110, input B = 00000000000000000001001010100101, output OUT = 11111111111111111111000000111001
# UVM_INFO @ 165: reporter [MISCMP] Miscompare for exp.data: lhs = 'hfffff039 : rhs = 'h1583
# UVM_INFO @ 165: reporter [MISCMP] 1 Miscompare(s) for object tr@825 vs. exp@617
# UVM_WARNING @ 165: uvm_test_top.env_h.comp [Comparator Mismatch] 
# adder: input A =        569, input B =       1853, output OUT =       2422
# adder: input A = 00000000000000000000001000111001, input B = 00000000000000000000011100111101, output OUT = 00000000000000000000100101110110
# refmod: input A =         569, input B =        1853, output OUT =       -1284
# refmod: input A = 00000000000000000000001000111001, input B = 00000000000000000000011100111101, output OUT = 11111111111111111111101011111100
# UVM_INFO @ 195: reporter [MISCMP] Miscompare for exp.data: lhs = 'hfffffafc : rhs = 'h976
# UVM_INFO @ 195: reporter [MISCMP] 1 Miscompare(s) for object tr@825 vs. exp@617
# UVM_WARNING @ 195: uvm_test_top.env_h.comp [Comparator Mismatch] 
# adder: input A =        397, input B =       2425, output OUT =       2822
# adder: input A = 00000000000000000000000110001101, input B = 00000000000000000000100101111001, output OUT = 00000000000000000000101100000110
# refmod: input A =         397, input B =        2425, output OUT =       -2028
# refmod: input A = 00000000000000000000000110001101, input B = 00000000000000000000100101111001, output OUT = 11111111111111111111100000010100
# UVM_INFO @ 225: reporter [MISCMP] Miscompare for exp.data: lhs = 'hfffff814 : rhs = 'hb06
# UVM_INFO @ 225: reporter [MISCMP] 1 Miscompare(s) for object tr@825 vs. exp@617
# UVM_WARNING @ 225: uvm_test_top.env_h.comp [Comparator Mismatch] 
# adder: input A =        671, input B =        863, output OUT =       1534
# adder: input A = 00000000000000000000001010011111, input B = 00000000000000000000001101011111, output OUT = 00000000000000000000010111111110
# refmod: input A =         671, input B =         863, output OUT =        -192
# refmod: input A = 00000000000000000000001010011111, input B = 00000000000000000000001101011111, output OUT = 11111111111111111111111101000000
# UVM_INFO @ 255: reporter [MISCMP] Miscompare for exp.data: lhs = 'hffffff40 : rhs = 'h5fe
# UVM_INFO @ 255: reporter [MISCMP] 1 Miscompare(s) for object tr@825 vs. exp@617
# UVM_WARNING @ 255: uvm_test_top.env_h.comp [Comparator Mismatch] 
# adder: input A =        652, input B =       2905, output OUT =       3557
# adder: input A = 00000000000000000000001010001100, input B = 00000000000000000000101101011001, output OUT = 00000000000000000000110111100101
# refmod: input A =         652, input B =        2905, output OUT =       -2253
# refmod: input A = 00000000000000000000001010001100, input B = 00000000000000000000101101011001, output OUT = 11111111111111111111011100110011
# UVM_INFO @ 285: reporter [MISCMP] Miscompare for exp.data: lhs = 'hfffff733 : rhs = 'hde5
# UVM_INFO @ 285: reporter [MISCMP] 1 Miscompare(s) for object tr@825 vs. exp@617
# UVM_WARNING @ 285: uvm_test_top.env_h.comp [Comparator Mismatch] 
# adder: input A =        804, input B =       1398, output OUT =       2202
# adder: input A = 00000000000000000000001100100100, input B = 00000000000000000000010101110110, output OUT = 00000000000000000000100010011010
# refmod: input A =         804, input B =        1398, output OUT =        -594
# refmod: input A = 00000000000000000000001100100100, input B = 00000000000000000000010101110110, output OUT = 11111111111111111111110110101110
# UVM_INFO @ 315: reporter [MISCMP] Miscompare for exp.data: lhs = 'hfffffdae : rhs = 'h89a
# UVM_INFO @ 315: reporter [MISCMP] 1 Miscompare(s) for object tr@825 vs. exp@617
# UVM_WARNING @ 315: uvm_test_top.env_h.comp [Comparator Mismatch] 
# adder: input A =        444, input B =       2399, output OUT =       2843
# adder: input A = 00000000000000000000000110111100, input B = 00000000000000000000100101011111, output OUT = 00000000000000000000101100011011
# refmod: input A =         444, input B =        2399, output OUT =       -1955
# refmod: input A = 00000000000000000000000110111100, input B = 00000000000000000000100101011111, output OUT = 11111111111111111111100001011101
# UVM_INFO @ 345: reporter [MISCMP] Miscompare for exp.data: lhs = 'hfffff85d : rhs = 'hb1b
# UVM_INFO @ 345: reporter [MISCMP] 1 Miscompare(s) for object tr@825 vs. exp@617
# UVM_WARNING @ 345: uvm_test_top.env_h.comp [Comparator Mismatch] 
# adder: input A =        952, input B =       5308, output OUT =       6260
# adder: input A = 00000000000000000000001110111000, input B = 00000000000000000001010010111100, output OUT = 00000000000000000001100001110100
# refmod: input A =         952, input B =        5308, output OUT =       -4356
# refmod: input A = 00000000000000000000001110111000, input B = 00000000000000000001010010111100, output OUT = 11111111111111111110111011111100
# UVM_INFO @ 375: reporter [MISCMP] Miscompare for exp.data: lhs = 'hffffeefc : rhs = 'h1874
# UVM_INFO @ 375: reporter [MISCMP] 1 Miscompare(s) for object tr@825 vs. exp@617
# UVM_WARNING @ 375: uvm_test_top.env_h.comp [Comparator Mismatch] 
# adder: input A =        855, input B =       2382, output OUT =       3237
# adder: input A = 00000000000000000000001101010111, input B = 00000000000000000000100101001110, output OUT = 00000000000000000000110010100101
# refmod: input A =         855, input B =        2382, output OUT =       -1527
# refmod: input A = 00000000000000000000001101010111, input B = 00000000000000000000100101001110, output OUT = 11111111111111111111101000001001
# UVM_INFO @ 405: reporter [MISCMP] Miscompare for exp.data: lhs = 'hfffffa09 : rhs = 'hca5
# UVM_INFO @ 405: reporter [MISCMP] 1 Miscompare(s) for object tr@825 vs. exp@617
# UVM_WARNING @ 405: uvm_test_top.env_h.comp [Comparator Mismatch] 
# adder: input A =        838, input B =       8052, output OUT =       8890
# adder: input A = 00000000000000000000001101000110, input B = 00000000000000000001111101110100, output OUT = 00000000000000000010001010111010
# refmod: input A =         838, input B =        8052, output OUT =       -7214
# refmod: input A = 00000000000000000000001101000110, input B = 00000000000000000001111101110100, output OUT = 11111111111111111110001111010010
# UVM_INFO @ 435: reporter [MISCMP] Miscompare for exp.data: lhs = 'hffffe3d2 : rhs = 'h22ba
# UVM_INFO @ 435: reporter [MISCMP] 1 Miscompare(s) for object tr@825 vs. exp@617
# UVM_WARNING @ 435: uvm_test_top.env_h.comp [Comparator Mismatch] 
# adder: input A =        650, input B =       3951, output OUT =       4601
# adder: input A = 00000000000000000000001010001010, input B = 00000000000000000000111101101111, output OUT = 00000000000000000001000111111001
# refmod: input A =         650, input B =        3951, output OUT =       -3301
# refmod: input A = 00000000000000000000001010001010, input B = 00000000000000000000111101101111, output OUT = 11111111111111111111001100011011
# UVM_INFO @ 465: reporter [MISCMP] Miscompare for exp.data: lhs = 'hfffff31b : rhs = 'h11f9
# UVM_INFO @ 465: reporter [MISCMP] 1 Miscompare(s) for object tr@825 vs. exp@617
# UVM_WARNING @ 465: uvm_test_top.env_h.comp [Comparator Mismatch] 
# adder: input A =        159, input B =        589, output OUT =        748
# adder: input A = 00000000000000000000000010011111, input B = 00000000000000000000001001001101, output OUT = 00000000000000000000001011101100
# refmod: input A =         159, input B =         589, output OUT =        -430
# refmod: input A = 00000000000000000000000010011111, input B = 00000000000000000000001001001101, output OUT = 11111111111111111111111001010010
# UVM_INFO @ 495: reporter [MISCMP] Miscompare for exp.data: lhs = 'hfffffe52 : rhs = 'h2ec
# UVM_INFO @ 495: reporter [MISCMP] 1 Miscompare(s) for object tr@825 vs. exp@617
# UVM_WARNING @ 495: uvm_test_top.env_h.comp [Comparator Mismatch] 
# adder: input A =        414, input B =       3096, output OUT =       3510
# adder: input A = 00000000000000000000000110011110, input B = 00000000000000000000110000011000, output OUT = 00000000000000000000110110110110
# refmod: input A =         414, input B =        3096, output OUT =       -2682
# refmod: input A = 00000000000000000000000110011110, input B = 00000000000000000000110000011000, output OUT = 11111111111111111111010110000110
# UVM_INFO @ 525: reporter [MISCMP] Miscompare for exp.data: lhs = 'hfffff586 : rhs = 'hdb6
# UVM_INFO @ 525: reporter [MISCMP] 1 Miscompare(s) for object tr@825 vs. exp@617
# UVM_WARNING @ 525: uvm_test_top.env_h.comp [Comparator Mismatch] 
# adder: input A =        894, input B =       5110, output OUT =       6004
# adder: input A = 00000000000000000000001101111110, input B = 00000000000000000001001111110110, output OUT = 00000000000000000001011101110100
# refmod: input A =         894, input B =        5110, output OUT =       -4216
# refmod: input A = 00000000000000000000001101111110, input B = 00000000000000000001001111110110, output OUT = 11111111111111111110111110001000
# UVM_INFO @ 555: reporter [MISCMP] Miscompare for exp.data: lhs = 'hffffef88 : rhs = 'h1774
# UVM_INFO @ 555: reporter [MISCMP] 1 Miscompare(s) for object tr@825 vs. exp@617
# UVM_WARNING @ 555: uvm_test_top.env_h.comp [Comparator Mismatch] 
# adder: input A =        967, input B =       8944, output OUT =       9911
# adder: input A = 00000000000000000000001111000111, input B = 00000000000000000010001011110000, output OUT = 00000000000000000010011010110111
# refmod: input A =         967, input B =        8944, output OUT =       -7977
# refmod: input A = 00000000000000000000001111000111, input B = 00000000000000000010001011110000, output OUT = 11111111111111111110000011010111
# UVM_INFO @ 585: reporter [MISCMP] Miscompare for exp.data: lhs = 'hffffe0d7 : rhs = 'h26b7
# UVM_INFO @ 585: reporter [MISCMP] 1 Miscompare(s) for object tr@825 vs. exp@617
# UVM_WARNING @ 585: uvm_test_top.env_h.comp [Comparator Mismatch] 
# adder: input A =        970, input B =       5790, output OUT =       6760
# adder: input A = 00000000000000000000001111001010, input B = 00000000000000000001011010011110, output OUT = 00000000000000000001101001101000
# refmod: input A =         970, input B =        5790, output OUT =       -4820
# refmod: input A = 00000000000000000000001111001010, input B = 00000000000000000001011010011110, output OUT = 11111111111111111110110100101100
# UVM_INFO @ 615: reporter [MISCMP] Miscompare for exp.data: lhs = 'hffffed2c : rhs = 'h1a68
# UVM_INFO @ 615: reporter [MISCMP] 1 Miscompare(s) for object tr@825 vs. exp@617
# UVM_WARNING @ 615: uvm_test_top.env_h.comp [Comparator Mismatch] 
# adder: input A =        196, input B =       1921, output OUT =       2117
# adder: input A = 00000000000000000000000011000100, input B = 00000000000000000000011110000001, output OUT = 00000000000000000000100001000101
# refmod: input A =         196, input B =        1921, output OUT =       -1725
# refmod: input A = 00000000000000000000000011000100, input B = 00000000000000000000011110000001, output OUT = 11111111111111111111100101000011
# UVM_INFO @ 645: reporter [MISCMP] Miscompare for exp.data: lhs = 'hfffff943 : rhs = 'h845
# UVM_INFO @ 645: reporter [MISCMP] 1 Miscompare(s) for object tr@825 vs. exp@617
# UVM_WARNING @ 645: uvm_test_top.env_h.comp [Comparator Mismatch] 
# adder: input A =        834, input B =       8125, output OUT =       8959
# adder: input A = 00000000000000000000001101000010, input B = 00000000000000000001111110111101, output OUT = 00000000000000000010001011111111
# refmod: input A =         834, input B =        8125, output OUT =       -7291
# refmod: input A = 00000000000000000000001101000010, input B = 00000000000000000001111110111101, output OUT = 11111111111111111110001110000101
# UVM_INFO @ 675: reporter [MISCMP] Miscompare for exp.data: lhs = 'hffffe385 : rhs = 'h22ff
# UVM_INFO @ 675: reporter [MISCMP] 1 Miscompare(s) for object tr@825 vs. exp@617
# UVM_WARNING @ 675: uvm_test_top.env_h.comp [Comparator Mismatch] 
# adder: input A =        591, input B =       4086, output OUT =       4677
# adder: input A = 00000000000000000000001001001111, input B = 00000000000000000000111111110110, output OUT = 00000000000000000001001001000101
# refmod: input A =         591, input B =        4086, output OUT =       -3495
# refmod: input A = 00000000000000000000001001001111, input B = 00000000000000000000111111110110, output OUT = 11111111111111111111001001011001
# UVM_INFO @ 705: reporter [MISCMP] Miscompare for exp.data: lhs = 'hfffff259 : rhs = 'h1245
# UVM_INFO @ 705: reporter [MISCMP] 1 Miscompare(s) for object tr@825 vs. exp@617
# UVM_WARNING @ 705: uvm_test_top.env_h.comp [Comparator Mismatch] 
# adder: input A =        854, input B =       3803, output OUT =       4657
# adder: input A = 00000000000000000000001101010110, input B = 00000000000000000000111011011011, output OUT = 00000000000000000001001000110001
# refmod: input A =         854, input B =        3803, output OUT =       -2949
# refmod: input A = 00000000000000000000001101010110, input B = 00000000000000000000111011011011, output OUT = 11111111111111111111010001111011
# UVM_INFO @ 735: reporter [MISCMP] Miscompare for exp.data: lhs = 'hfffff47b : rhs = 'h1231
# UVM_INFO @ 735: reporter [MISCMP] 1 Miscompare(s) for object tr@825 vs. exp@617
# UVM_WARNING @ 735: uvm_test_top.env_h.comp [Comparator Mismatch] 
# adder: input A =        722, input B =       5749, output OUT =       6471
# adder: input A = 00000000000000000000001011010010, input B = 00000000000000000001011001110101, output OUT = 00000000000000000001100101000111
# refmod: input A =         722, input B =        5749, output OUT =       -5027
# refmod: input A = 00000000000000000000001011010010, input B = 00000000000000000001011001110101, output OUT = 11111111111111111110110001011101
# UVM_INFO @ 765: reporter [MISCMP] Miscompare for exp.data: lhs = 'hffffec5d : rhs = 'h1947
# UVM_INFO @ 765: reporter [MISCMP] 1 Miscompare(s) for object tr@825 vs. exp@617
# UVM_WARNING @ 765: uvm_test_top.env_h.comp [Comparator Mismatch] 
# adder: input A =        940, input B =       8915, output OUT =       9855
# adder: input A = 00000000000000000000001110101100, input B = 00000000000000000010001011010011, output OUT = 00000000000000000010011001111111
# refmod: input A =         940, input B =        8915, output OUT =       -7975
# refmod: input A = 00000000000000000000001110101100, input B = 00000000000000000010001011010011, output OUT = 11111111111111111110000011011001
# UVM_INFO @ 795: reporter [MISCMP] Miscompare for exp.data: lhs = 'hffffe0d9 : rhs = 'h267f
# UVM_INFO @ 795: reporter [MISCMP] 1 Miscompare(s) for object tr@825 vs. exp@617
# UVM_WARNING @ 795: uvm_test_top.env_h.comp [Comparator Mismatch] 
# adder: input A =        739, input B =       5467, output OUT =       6206
# adder: input A = 00000000000000000000001011100011, input B = 00000000000000000001010101011011, output OUT = 00000000000000000001100000111110
# refmod: input A =         739, input B =        5467, output OUT =       -4728
# refmod: input A = 00000000000000000000001011100011, input B = 00000000000000000001010101011011, output OUT = 11111111111111111110110110001000
# UVM_INFO @ 825: reporter [MISCMP] Miscompare for exp.data: lhs = 'hffffed88 : rhs = 'h183e
# UVM_INFO @ 825: reporter [MISCMP] 1 Miscompare(s) for object tr@825 vs. exp@617
# UVM_WARNING @ 825: uvm_test_top.env_h.comp [Comparator Mismatch] 
# adder: input A =        186, input B =        737, output OUT =        923
# adder: input A = 00000000000000000000000010111010, input B = 00000000000000000000001011100001, output OUT = 00000000000000000000001110011011
# refmod: input A =         186, input B =         737, output OUT =        -551
# refmod: input A = 00000000000000000000000010111010, input B = 00000000000000000000001011100001, output OUT = 11111111111111111111110111011001
# UVM_INFO @ 855: reporter [MISCMP] Miscompare for exp.data: lhs = 'hfffffdd9 : rhs = 'h39b
# UVM_INFO @ 855: reporter [MISCMP] 1 Miscompare(s) for object tr@825 vs. exp@617
# UVM_WARNING @ 855: uvm_test_top.env_h.comp [Comparator Mismatch] 
# adder: input A =        718, input B =       5701, output OUT =       6419
# adder: input A = 00000000000000000000001011001110, input B = 00000000000000000001011001000101, output OUT = 00000000000000000001100100010011
# refmod: input A =         718, input B =        5701, output OUT =       -4983
# refmod: input A = 00000000000000000000001011001110, input B = 00000000000000000001011001000101, output OUT = 11111111111111111110110010001001
# UVM_INFO @ 885: reporter [MISCMP] Miscompare for exp.data: lhs = 'hffffec89 : rhs = 'h1913
# UVM_INFO @ 885: reporter [MISCMP] 1 Miscompare(s) for object tr@825 vs. exp@617
# UVM_WARNING @ 885: uvm_test_top.env_h.comp [Comparator Mismatch] 
# adder: input A =        352, input B =       3270, output OUT =       3622
# adder: input A = 00000000000000000000000101100000, input B = 00000000000000000000110011000110, output OUT = 00000000000000000000111000100110
# refmod: input A =         352, input B =        3270, output OUT =       -2918
# refmod: input A = 00000000000000000000000101100000, input B = 00000000000000000000110011000110, output OUT = 11111111111111111111010010011010
# UVM_INFO @ 915: reporter [MISCMP] Miscompare for exp.data: lhs = 'hfffff49a : rhs = 'he26
# UVM_INFO @ 915: reporter [MISCMP] 1 Miscompare(s) for object tr@825 vs. exp@617
# UVM_WARNING @ 915: uvm_test_top.env_h.comp [Comparator Mismatch] 
# adder: input A =        754, input B =       4487, output OUT =       5241
# adder: input A = 00000000000000000000001011110010, input B = 00000000000000000001000110000111, output OUT = 00000000000000000001010001111001
# refmod: input A =         754, input B =        4487, output OUT =       -3733
# refmod: input A = 00000000000000000000001011110010, input B = 00000000000000000001000110000111, output OUT = 11111111111111111111000101101011
# UVM_INFO @ 945: reporter [MISCMP] Miscompare for exp.data: lhs = 'hfffff16b : rhs = 'h1479
# UVM_INFO @ 945: reporter [MISCMP] 1 Miscompare(s) for object tr@825 vs. exp@617
# UVM_WARNING @ 945: uvm_test_top.env_h.comp [Comparator Mismatch] 
# adder: input A =        895, input B =       8187, output OUT =       9082
# adder: input A = 00000000000000000000001101111111, input B = 00000000000000000001111111111011, output OUT = 00000000000000000010001101111010
# refmod: input A =         895, input B =        8187, output OUT =       -7292
# refmod: input A = 00000000000000000000001101111111, input B = 00000000000000000001111111111011, output OUT = 11111111111111111110001110000100
# UVM_INFO @ 975: reporter [MISCMP] Miscompare for exp.data: lhs = 'hffffe384 : rhs = 'h237a
# UVM_INFO @ 975: reporter [MISCMP] 1 Miscompare(s) for object tr@825 vs. exp@617
# UVM_WARNING @ 975: uvm_test_top.env_h.comp [Comparator Mismatch] 
# adder: input A =        776, input B =       4880, output OUT =       5656
# adder: input A = 00000000000000000000001100001000, input B = 00000000000000000001001100010000, output OUT = 00000000000000000001011000011000
# refmod: input A =         776, input B =        4880, output OUT =       -4104
# refmod: input A = 00000000000000000000001100001000, input B = 00000000000000000001001100010000, output OUT = 11111111111111111110111111111000
# UVM_INFO @ 1005: reporter [MISCMP] Miscompare for exp.data: lhs = 'hffffeff8 : rhs = 'h1618
# UVM_INFO @ 1005: reporter [MISCMP] 1 Miscompare(s) for object tr@825 vs. exp@617
# UVM_WARNING @ 1005: uvm_test_top.env_h.comp [Comparator Mismatch] 
# adder: input A =        659, input B =       4080, output OUT =       4739
# adder: input A = 00000000000000000000001010010011, input B = 00000000000000000000111111110000, output OUT = 00000000000000000001001010000011
# refmod: input A =         659, input B =        4080, output OUT =       -3421
# refmod: input A = 00000000000000000000001010010011, input B = 00000000000000000000111111110000, output OUT = 11111111111111111111001010100011
# UVM_INFO @ 1035: reporter [MISCMP] Miscompare for exp.data: lhs = 'hfffff2a3 : rhs = 'h1283
# UVM_INFO @ 1035: reporter [MISCMP] 1 Miscompare(s) for object tr@825 vs. exp@617
# UVM_WARNING @ 1035: uvm_test_top.env_h.comp [Comparator Mismatch] 
# adder: input A =        720, input B =       1558, output OUT =       2278
# adder: input A = 00000000000000000000001011010000, input B = 00000000000000000000011000010110, output OUT = 00000000000000000000100011100110
# refmod: input A =         720, input B =        1558, output OUT =        -838
# refmod: input A = 00000000000000000000001011010000, input B = 00000000000000000000011000010110, output OUT = 11111111111111111111110010111010
# UVM_INFO @ 1065: reporter [MISCMP] Miscompare for exp.data: lhs = 'hfffffcba : rhs = 'h8e6
# UVM_INFO @ 1065: reporter [MISCMP] 1 Miscompare(s) for object tr@825 vs. exp@617
# UVM_WARNING @ 1065: uvm_test_top.env_h.comp [Comparator Mismatch] 
# adder: input A =        948, input B =       7442, output OUT =       8390
# adder: input A = 00000000000000000000001110110100, input B = 00000000000000000001110100010010, output OUT = 00000000000000000010000011000110
# refmod: input A =         948, input B =        7442, output OUT =       -6494
# refmod: input A = 00000000000000000000001110110100, input B = 00000000000000000001110100010010, output OUT = 11111111111111111110011010100010
# UVM_INFO @ 1095: reporter [MISCMP] Miscompare for exp.data: lhs = 'hffffe6a2 : rhs = 'h20c6
# UVM_INFO @ 1095: reporter [MISCMP] 1 Miscompare(s) for object tr@825 vs. exp@617
# UVM_WARNING @ 1095: uvm_test_top.env_h.comp [Comparator Mismatch] 
# adder: input A =        984, input B =       3955, output OUT =       4939
# adder: input A = 00000000000000000000001111011000, input B = 00000000000000000000111101110011, output OUT = 00000000000000000001001101001011
# refmod: input A =         984, input B =        3955, output OUT =       -2971
# refmod: input A = 00000000000000000000001111011000, input B = 00000000000000000000111101110011, output OUT = 11111111111111111111010001100101
# UVM_INFO @ 1125: reporter [MISCMP] Miscompare for exp.data: lhs = 'hfffff465 : rhs = 'h134b
# UVM_INFO @ 1125: reporter [MISCMP] 1 Miscompare(s) for object tr@825 vs. exp@617
# UVM_WARNING @ 1125: uvm_test_top.env_h.comp [Comparator Mismatch] 
# adder: input A =        311, input B =       3030, output OUT =       3341
# adder: input A = 00000000000000000000000100110111, input B = 00000000000000000000101111010110, output OUT = 00000000000000000000110100001101
# refmod: input A =         311, input B =        3030, output OUT =       -2719
# refmod: input A = 00000000000000000000000100110111, input B = 00000000000000000000101111010110, output OUT = 11111111111111111111010101100001
# UVM_INFO @ 1155: reporter [MISCMP] Miscompare for exp.data: lhs = 'hfffff561 : rhs = 'hd0d
# UVM_INFO @ 1155: reporter [MISCMP] 1 Miscompare(s) for object tr@825 vs. exp@617
# UVM_WARNING @ 1155: uvm_test_top.env_h.comp [Comparator Mismatch] 
# adder: input A =        978, input B =       7286, output OUT =       8264
# adder: input A = 00000000000000000000001111010010, input B = 00000000000000000001110001110110, output OUT = 00000000000000000010000001001000
# refmod: input A =         978, input B =        7286, output OUT =       -6308
# refmod: input A = 00000000000000000000001111010010, input B = 00000000000000000001110001110110, output OUT = 11111111111111111110011101011100
# UVM_INFO @ 1185: reporter [MISCMP] Miscompare for exp.data: lhs = 'hffffe75c : rhs = 'h2048
# UVM_INFO @ 1185: reporter [MISCMP] 1 Miscompare(s) for object tr@825 vs. exp@617
# UVM_WARNING @ 1185: uvm_test_top.env_h.comp [Comparator Mismatch] 
# adder: input A =        603, input B =       2111, output OUT =       2714
# adder: input A = 00000000000000000000001001011011, input B = 00000000000000000000100000111111, output OUT = 00000000000000000000101010011010
# refmod: input A =         603, input B =        2111, output OUT =       -1508
# refmod: input A = 00000000000000000000001001011011, input B = 00000000000000000000100000111111, output OUT = 11111111111111111111101000011100
# UVM_INFO @ 1215: reporter [MISCMP] Miscompare for exp.data: lhs = 'hfffffa1c : rhs = 'ha9a
# UVM_INFO @ 1215: reporter [MISCMP] 1 Miscompare(s) for object tr@825 vs. exp@617
# UVM_WARNING @ 1215: uvm_test_top.env_h.comp [Comparator Mismatch] 
# adder: input A =        954, input B =       4620, output OUT =       5574
# adder: input A = 00000000000000000000001110111010, input B = 00000000000000000001001000001100, output OUT = 00000000000000000001010111000110
# refmod: input A =         954, input B =        4620, output OUT =       -3666
# refmod: input A = 00000000000000000000001110111010, input B = 00000000000000000001001000001100, output OUT = 11111111111111111111000110101110
# UVM_INFO @ 1245: reporter [MISCMP] Miscompare for exp.data: lhs = 'hfffff1ae : rhs = 'h15c6
# UVM_INFO @ 1245: reporter [MISCMP] 1 Miscompare(s) for object tr@825 vs. exp@617
# UVM_WARNING @ 1245: uvm_test_top.env_h.comp [Comparator Mismatch] 
# adder: input A =        846, input B =       2346, output OUT =       3192
# adder: input A = 00000000000000000000001101001110, input B = 00000000000000000000100100101010, output OUT = 00000000000000000000110001111000
# refmod: input A =         846, input B =        2346, output OUT =       -1500
# refmod: input A = 00000000000000000000001101001110, input B = 00000000000000000000100100101010, output OUT = 11111111111111111111101000100100
# UVM_INFO @ 1275: reporter [MISCMP] Miscompare for exp.data: lhs = 'hfffffa24 : rhs = 'hc78
# UVM_INFO @ 1275: reporter [MISCMP] 1 Miscompare(s) for object tr@825 vs. exp@617
# UVM_WARNING @ 1275: uvm_test_top.env_h.comp [Comparator Mismatch] 
# adder: input A =        663, input B =       3170, output OUT =       3833
# adder: input A = 00000000000000000000001010010111, input B = 00000000000000000000110001100010, output OUT = 00000000000000000000111011111001
