sim/transcript
# //  Questa Sim-64
# //  Version 10.7c linux_x86_64 Aug 17 2018
# //
# //  Copyright 1991-2018 Mentor Graphics Corporation
# //  All Rights Reserved.
# //
# //  QuestaSim and its associated documentation contain trade
# //  secrets and commercial or financial information that are the property of
# //  Mentor Graphics Corporation and are privileged, confidential,
# //  and exempt from disclosure under the Freedom of Information Act,
# //  5 U.S.C. Section 552. Furthermore, this information
# //  is prohibited from disclosure under the Trade Secrets Act,
# //  18 U.S.C. Section 1905.
# //
do ../testing_initial.do
# QuestaSim-64 vlog 10.7c Compiler 2018.08 Aug 17 2018
# Start time: 13:19:54 on Mar 22,2021
# vlog -reportprogress 300 -sv ../tb/top.sv 
# ** Note: (vlog-2286) ../tb/top.sv(2): Using implicit +incdir+/software/mentor/questa10.7c/questasim/uvm-1.1d/../verilog_src/uvm-1.1d/src from import uvm_pkg
# -- Compiling package top_sv_unit
# -- Importing package mtiUvm.uvm_pkg (uvm-1.1d Built-in)
# ** Warning: ../tb/monitor.sv(49): (vlog-2240) Treating stand-alone use of function 'begin_tr' as an implicit VOID cast.
# ** Warning: ../tb/monitor_out.sv(48): (vlog-2240) Treating stand-alone use of function 'begin_tr' as an implicit VOID cast.
# -- Compiling module adder
# -- Compiling interface dut_if
# -- Compiling module DUT
# -- Compiling module top
# 
# Top level modules:
# 	top
# End time: 13:19:56 on Mar 22,2021, Elapsed time: 0:00:02
# Errors: 0, Warnings: 2
# vsim top 
# Start time: 13:19:56 on Mar 22,2021
# ** Note: (vsim-3812) Design is being optimized...
# ** Warning: ../tb/monitor.sv(49): (vopt-2240) Treating stand-alone use of function 'begin_tr' as an implicit VOID cast.
# ** Warning: ../tb/monitor_out.sv(48): (vopt-2240) Treating stand-alone use of function 'begin_tr' as an implicit VOID cast.
# Loading sv_std.std
# Loading mtiUvm.uvm_pkg
# Loading work.top_sv_unit(fast)
# Loading work.top(fast)
# Loading work.DUT(fast)
# Loading mtiUvm.questa_uvm_pkg(fast)
# Loading work.dut_if(fast)
# ** Warning: (vsim-3838) Variable '/top/out/data' written by continuous and procedural assignments. 
# One of the assignments is implicit. See ../src/DUT.sv(9).
#    Time: 0 ns  Iteration: 0  Instance: /top/sum File: ../src/DUT.sv Line: 3
# ** Warning: (vsim-3764) Stand-alone call to function 'begin_tr' treated as implicit void cast.
#    Time: 0 ns  Iteration: 0  Region: /top_sv_unit::driver File: ../tb/driver.sv Line: 67
# Loading /software/mentor/questa10.7c/questasim/uvm-1.1d/linux_x86_64/uvm_dpi.so
# ----------------------------------------------------------------
# UVM-1.1d
# (C) 2007-2013 Mentor Graphics Corporation
# (C) 2007-2013 Cadence Design Systems, Inc.
# (C) 2006-2013 Synopsys, Inc.
# (C) 2011-2013 Cypress Semiconductor Corp.
# ----------------------------------------------------------------
# 
#   ***********       IMPORTANT RELEASE NOTES         ************
# 
#   You are using a version of the UVM library that has been compiled
#   with `UVM_NO_DEPRECATED undefined.
#   See http://www.eda.org/svdb/view.php?id=3313 for more details.
# 
#   You are using a version of the UVM library that has been compiled
#   with `UVM_OBJECT_MUST_HAVE_CONSTRUCTOR undefined.
#   See http://www.eda.org/svdb/view.php?id=3770 for more details.
# 
#       (Specify +UVM_NO_RELNOTES to turn off this notice)
# 
# UVM_INFO verilog_src/questa_uvm_pkg-1.2/src/questa_uvm_pkg.sv(215) @ 0: reporter [Questa UVM] QUESTA_UVM-1.2.3
# UVM_INFO verilog_src/questa_uvm_pkg-1.2/src/questa_uvm_pkg.sv(216) @ 0: reporter [Questa UVM]  questa_uvm::init(+struct)
# UVM_INFO @ 0: reporter [RNTST] Running test simple_test...
# adder: input A =         491, input B =        3094, output OUT =        3585
# adder: input A = 00000000000000000000000111101011, input B = 00000000000000000000110000010110, output OUT = 00000000000000000000111000000001
# refmod: input A =         491, input B =        3094, output OUT =        3585
# refmod: input A = 00000000000000000000000111101011, input B = 00000000000000000000110000010110, output OUT = 00000000000000000000111000000001
# UVM_INFO @ 45: uvm_test_top.env_h.comp [Comparator Match] 
# adder: input A =         677, input B =        4479, output OUT =        5156
# adder: input A = 00000000000000000000001010100101, input B = 00000000000000000001000101111111, output OUT = 00000000000000000001010000100100
# refmod: input A =         677, input B =        4479, output OUT =        5156
# refmod: input A = 00000000000000000000001010100101, input B = 00000000000000000001000101111111, output OUT = 00000000000000000001010000100100
# UVM_INFO @ 75: uvm_test_top.env_h.comp [Comparator Match] 
# adder: input A =         337, input B =        2888, output OUT =        3225
# adder: input A = 00000000000000000000000101010001, input B = 00000000000000000000101101001000, output OUT = 00000000000000000000110010011001
# refmod: input A =         337, input B =        2888, output OUT =        3225
# refmod: input A = 00000000000000000000000101010001, input B = 00000000000000000000101101001000, output OUT = 00000000000000000000110010011001
# UVM_INFO @ 105: uvm_test_top.env_h.comp [Comparator Match] 
# adder: input A =         653, input B =        4699, output OUT =        5352
# adder: input A = 00000000000000000000001010001101, input B = 00000000000000000001001001011011, output OUT = 00000000000000000001010011101000
# refmod: input A =         653, input B =        4699, output OUT =        5352
# refmod: input A = 00000000000000000000001010001101, input B = 00000000000000000001001001011011, output OUT = 00000000000000000001010011101000
# UVM_INFO @ 135: uvm_test_top.env_h.comp [Comparator Match] 
# adder: input A =         734, input B =        4773, output OUT =        5507
# adder: input A = 00000000000000000000001011011110, input B = 00000000000000000001001010100101, output OUT = 00000000000000000001010110000011
# refmod: input A =         734, input B =        4773, output OUT =        5507
# refmod: input A = 00000000000000000000001011011110, input B = 00000000000000000001001010100101, output OUT = 00000000000000000001010110000011
# UVM_INFO @ 165: uvm_test_top.env_h.comp [Comparator Match] 
# adder: input A =         569, input B =        1853, output OUT =        2422
# adder: input A = 00000000000000000000001000111001, input B = 00000000000000000000011100111101, output OUT = 00000000000000000000100101110110
# refmod: input A =         569, input B =        1853, output OUT =        2422
# refmod: input A = 00000000000000000000001000111001, input B = 00000000000000000000011100111101, output OUT = 00000000000000000000100101110110
# UVM_INFO @ 195: uvm_test_top.env_h.comp [Comparator Match] 
# adder: input A =         397, input B =        2425, output OUT =        2822
# adder: input A = 00000000000000000000000110001101, input B = 00000000000000000000100101111001, output OUT = 00000000000000000000101100000110
# refmod: input A =         397, input B =        2425, output OUT =        2822
# refmod: input A = 00000000000000000000000110001101, input B = 00000000000000000000100101111001, output OUT = 00000000000000000000101100000110
# UVM_INFO @ 225: uvm_test_top.env_h.comp [Comparator Match] 
# adder: input A =         671, input B =         863, output OUT =        1534
# adder: input A = 00000000000000000000001010011111, input B = 00000000000000000000001101011111, output OUT = 00000000000000000000010111111110
# refmod: input A =         671, input B =         863, output OUT =        1534
# refmod: input A = 00000000000000000000001010011111, input B = 00000000000000000000001101011111, output OUT = 00000000000000000000010111111110
# UVM_INFO @ 255: uvm_test_top.env_h.comp [Comparator Match] 
# adder: input A =         652, input B =        2905, output OUT =        3557
# adder: input A = 00000000000000000000001010001100, input B = 00000000000000000000101101011001, output OUT = 00000000000000000000110111100101
# refmod: input A =         652, input B =        2905, output OUT =        3557
# refmod: input A = 00000000000000000000001010001100, input B = 00000000000000000000101101011001, output OUT = 00000000000000000000110111100101
# UVM_INFO @ 285: uvm_test_top.env_h.comp [Comparator Match] 
# adder: input A =         804, input B =        1398, output OUT =        2202
# adder: input A = 00000000000000000000001100100100, input B = 00000000000000000000010101110110, output OUT = 00000000000000000000100010011010
# refmod: input A =         804, input B =        1398, output OUT =        2202
# refmod: input A = 00000000000000000000001100100100, input B = 00000000000000000000010101110110, output OUT = 00000000000000000000100010011010
# UVM_INFO @ 315: uvm_test_top.env_h.comp [Comparator Match] 
# adder: input A =         444, input B =        2399, output OUT =        2843
# adder: input A = 00000000000000000000000110111100, input B = 00000000000000000000100101011111, output OUT = 00000000000000000000101100011011
# refmod: input A =         444, input B =        2399, output OUT =        2843
# refmod: input A = 00000000000000000000000110111100, input B = 00000000000000000000100101011111, output OUT = 00000000000000000000101100011011
# UVM_INFO @ 345: uvm_test_top.env_h.comp [Comparator Match] 
# adder: input A =         952, input B =        5308, output OUT =        6260
# adder: input A = 00000000000000000000001110111000, input B = 00000000000000000001010010111100, output OUT = 00000000000000000001100001110100
# refmod: input A =         952, input B =        5308, output OUT =        6260
# refmod: input A = 00000000000000000000001110111000, input B = 00000000000000000001010010111100, output OUT = 00000000000000000001100001110100
# UVM_INFO @ 375: uvm_test_top.env_h.comp [Comparator Match] 
# adder: input A =         855, input B =        2382, output OUT =        3237
# adder: input A = 00000000000000000000001101010111, input B = 00000000000000000000100101001110, output OUT = 00000000000000000000110010100101
# refmod: input A =         855, input B =        2382, output OUT =        3237
# refmod: input A = 00000000000000000000001101010111, input B = 00000000000000000000100101001110, output OUT = 00000000000000000000110010100101
# UVM_INFO @ 405: uvm_test_top.env_h.comp [Comparator Match] 
# adder: input A =         838, input B =        8052, output OUT =        8890
# adder: input A = 00000000000000000000001101000110, input B = 00000000000000000001111101110100, output OUT = 00000000000000000010001010111010
# refmod: input A =         838, input B =        8052, output OUT =        8890
# refmod: input A = 00000000000000000000001101000110, input B = 00000000000000000001111101110100, output OUT = 00000000000000000010001010111010
# UVM_INFO @ 435: uvm_test_top.env_h.comp [Comparator Match] 
# adder: input A =         650, input B =        3951, output OUT =        4601
# adder: input A = 00000000000000000000001010001010, input B = 00000000000000000000111101101111, output OUT = 00000000000000000001000111111001
# refmod: input A =         650, input B =        3951, output OUT =        4601
# refmod: input A = 00000000000000000000001010001010, input B = 00000000000000000000111101101111, output OUT = 00000000000000000001000111111001
# UVM_INFO @ 465: uvm_test_top.env_h.comp [Comparator Match] 
# adder: input A =         159, input B =         589, output OUT =         748
# adder: input A = 00000000000000000000000010011111, input B = 00000000000000000000001001001101, output OUT = 00000000000000000000001011101100
# refmod: input A =         159, input B =         589, output OUT =         748
# refmod: input A = 00000000000000000000000010011111, input B = 00000000000000000000001001001101, output OUT = 00000000000000000000001011101100
# UVM_INFO @ 495: uvm_test_top.env_h.comp [Comparator Match] 
# adder: input A =         414, input B =        3096, output OUT =        3510
# adder: input A = 00000000000000000000000110011110, input B = 00000000000000000000110000011000, output OUT = 00000000000000000000110110110110
# refmod: input A =         414, input B =        3096, output OUT =        3510
# refmod: input A = 00000000000000000000000110011110, input B = 00000000000000000000110000011000, output OUT = 00000000000000000000110110110110
# UVM_INFO @ 525: uvm_test_top.env_h.comp [Comparator Match] 
# adder: input A =         894, input B =        5110, output OUT =        6004
# adder: input A = 00000000000000000000001101111110, input B = 00000000000000000001001111110110, output OUT = 00000000000000000001011101110100
# refmod: input A =         894, input B =        5110, output OUT =        6004
# refmod: input A = 00000000000000000000001101111110, input B = 00000000000000000001001111110110, output OUT = 00000000000000000001011101110100
# UVM_INFO @ 555: uvm_test_top.env_h.comp [Comparator Match] 
# adder: input A =         967, input B =        8944, output OUT =        9911
# adder: input A = 00000000000000000000001111000111, input B = 00000000000000000010001011110000, output OUT = 00000000000000000010011010110111
# refmod: input A =         967, input B =        8944, output OUT =        9911
# refmod: input A = 00000000000000000000001111000111, input B = 00000000000000000010001011110000, output OUT = 00000000000000000010011010110111
# UVM_INFO @ 585: uvm_test_top.env_h.comp [Comparator Match] 
# adder: input A =         970, input B =        5790, output OUT =        6760
# adder: input A = 00000000000000000000001111001010, input B = 00000000000000000001011010011110, output OUT = 00000000000000000001101001101000
# refmod: input A =         970, input B =        5790, output OUT =        6760
# refmod: input A = 00000000000000000000001111001010, input B = 00000000000000000001011010011110, output OUT = 00000000000000000001101001101000
# UVM_INFO @ 615: uvm_test_top.env_h.comp [Comparator Match] 
# adder: input A =         196, input B =        1921, output OUT =        2117
# adder: input A = 00000000000000000000000011000100, input B = 00000000000000000000011110000001, output OUT = 00000000000000000000100001000101
# refmod: input A =         196, input B =        1921, output OUT =        2117
# refmod: input A = 00000000000000000000000011000100, input B = 00000000000000000000011110000001, output OUT = 00000000000000000000100001000101
# UVM_INFO @ 645: uvm_test_top.env_h.comp [Comparator Match] 
# adder: input A =         834, input B =        8125, output OUT =        8959
# adder: input A = 00000000000000000000001101000010, input B = 00000000000000000001111110111101, output OUT = 00000000000000000010001011111111
# refmod: input A =         834, input B =        8125, output OUT =        8959
# refmod: input A = 00000000000000000000001101000010, input B = 00000000000000000001111110111101, output OUT = 00000000000000000010001011111111
# UVM_INFO @ 675: uvm_test_top.env_h.comp [Comparator Match] 
# adder: input A =         591, input B =        4086, output OUT =        4677
# adder: input A = 00000000000000000000001001001111, input B = 00000000000000000000111111110110, output OUT = 00000000000000000001001001000101
# refmod: input A =         591, input B =        4086, output OUT =        4677
# refmod: input A = 00000000000000000000001001001111, input B = 00000000000000000000111111110110, output OUT = 00000000000000000001001001000101
# UVM_INFO @ 705: uvm_test_top.env_h.comp [Comparator Match] 
# adder: input A =         854, input B =        3803, output OUT =        4657
# adder: input A = 00000000000000000000001101010110, input B = 00000000000000000000111011011011, output OUT = 00000000000000000001001000110001
# refmod: input A =         854, input B =        3803, output OUT =        4657
# refmod: input A = 00000000000000000000001101010110, input B = 00000000000000000000111011011011, output OUT = 00000000000000000001001000110001
# UVM_INFO @ 735: uvm_test_top.env_h.comp [Comparator Match] 
# adder: input A =         722, input B =        5749, output OUT =        6471
# adder: input A = 00000000000000000000001011010010, input B = 00000000000000000001011001110101, output OUT = 00000000000000000001100101000111
# refmod: input A =         722, input B =        5749, output OUT =        6471
# refmod: input A = 00000000000000000000001011010010, input B = 00000000000000000001011001110101, output OUT = 00000000000000000001100101000111
# UVM_INFO @ 765: uvm_test_top.env_h.comp [Comparator Match] 
# adder: input A =         940, input B =        8915, output OUT =        9855
# adder: input A = 00000000000000000000001110101100, input B = 00000000000000000010001011010011, output OUT = 00000000000000000010011001111111
# refmod: input A =         940, input B =        8915, output OUT =        9855
# refmod: input A = 00000000000000000000001110101100, input B = 00000000000000000010001011010011, output OUT = 00000000000000000010011001111111
# UVM_INFO @ 795: uvm_test_top.env_h.comp [Comparator Match] 
# adder: input A =         739, input B =        5467, output OUT =        6206
# adder: input A = 00000000000000000000001011100011, input B = 00000000000000000001010101011011, output OUT = 00000000000000000001100000111110
# refmod: input A =         739, input B =        5467, output OUT =        6206
# refmod: input A = 00000000000000000000001011100011, input B = 00000000000000000001010101011011, output OUT = 00000000000000000001100000111110
# UVM_INFO @ 825: uvm_test_top.env_h.comp [Comparator Match] 
# adder: input A =         186, input B =         737, output OUT =         923
# adder: input A = 00000000000000000000000010111010, input B = 00000000000000000000001011100001, output OUT = 00000000000000000000001110011011
# refmod: input A =         186, input B =         737, output OUT =         923
# refmod: input A = 00000000000000000000000010111010, input B = 00000000000000000000001011100001, output OUT = 00000000000000000000001110011011
# UVM_INFO @ 855: uvm_test_top.env_h.comp [Comparator Match] 
# adder: input A =         718, input B =        5701, output OUT =        6419
# adder: input A = 00000000000000000000001011001110, input B = 00000000000000000001011001000101, output OUT = 00000000000000000001100100010011
# refmod: input A =         718, input B =        5701, output OUT =        6419
# refmod: input A = 00000000000000000000001011001110, input B = 00000000000000000001011001000101, output OUT = 00000000000000000001100100010011
# UVM_INFO @ 885: uvm_test_top.env_h.comp [Comparator Match] 
# adder: input A =         352, input B =        3270, output OUT =        3622
# adder: input A = 00000000000000000000000101100000, input B = 00000000000000000000110011000110, output OUT = 00000000000000000000111000100110
# refmod: input A =         352, input B =        3270, output OUT =        3622
# refmod: input A = 00000000000000000000000101100000, input B = 00000000000000000000110011000110, output OUT = 00000000000000000000111000100110
# UVM_INFO @ 915: uvm_test_top.env_h.comp [Comparator Match] 
# adder: input A =         754, input B =        4487, output OUT =        5241
# adder: input A = 00000000000000000000001011110010, input B = 00000000000000000001000110000111, output OUT = 00000000000000000001010001111001
# refmod: input A =         754, input B =        4487, output OUT =        5241
# refmod: input A = 00000000000000000000001011110010, input B = 00000000000000000001000110000111, output OUT = 00000000000000000001010001111001
# UVM_INFO @ 945: uvm_test_top.env_h.comp [Comparator Match] 
# adder: input A =         895, input B =        8187, output OUT =        9082
# adder: input A = 00000000000000000000001101111111, input B = 00000000000000000001111111111011, output OUT = 00000000000000000010001101111010
# refmod: input A =         895, input B =        8187, output OUT =        9082
# refmod: input A = 00000000000000000000001101111111, input B = 00000000000000000001111111111011, output OUT = 00000000000000000010001101111010
# UVM_INFO @ 975: uvm_test_top.env_h.comp [Comparator Match] 
# adder: input A =         776, input B =        4880, output OUT =        5656
# adder: input A = 00000000000000000000001100001000, input B = 00000000000000000001001100010000, output OUT = 00000000000000000001011000011000
# refmod: input A =         776, input B =        4880, output OUT =        5656
# refmod: input A = 00000000000000000000001100001000, input B = 00000000000000000001001100010000, output OUT = 00000000000000000001011000011000
# UVM_INFO @ 1005: uvm_test_top.env_h.comp [Comparator Match] 
# adder: input A =         659, input B =        4080, output OUT =        4739
# adder: input A = 00000000000000000000001010010011, input B = 00000000000000000000111111110000, output OUT = 00000000000000000001001010000011
# refmod: input A =         659, input B =        4080, output OUT =        4739
# refmod: input A = 00000000000000000000001010010011, input B = 00000000000000000000111111110000, output OUT = 00000000000000000001001010000011
# UVM_INFO @ 1035: uvm_test_top.env_h.comp [Comparator Match] 
# adder: input A =         720, input B =        1558, output OUT =        2278
# adder: input A = 00000000000000000000001011010000, input B = 00000000000000000000011000010110, output OUT = 00000000000000000000100011100110
# refmod: input A =         720, input B =        1558, output OUT =        2278
# refmod: input A = 00000000000000000000001011010000, input B = 00000000000000000000011000010110, output OUT = 00000000000000000000100011100110
# UVM_INFO @ 1065: uvm_test_top.env_h.comp [Comparator Match] 
# adder: input A =         948, input B =        7442, output OUT =        8390
# adder: input A = 00000000000000000000001110110100, input B = 00000000000000000001110100010010, output OUT = 00000000000000000010000011000110
# refmod: input A =         948, input B =        7442, output OUT =        8390
# refmod: input A = 00000000000000000000001110110100, input B = 00000000000000000001110100010010, output OUT = 00000000000000000010000011000110
# UVM_INFO @ 1095: uvm_test_top.env_h.comp [Comparator Match] 
# adder: input A =         984, input B =        3955, output OUT =        4939
# adder: input A = 00000000000000000000001111011000, input B = 00000000000000000000111101110011, output OUT = 00000000000000000001001101001011
# refmod: input A =         984, input B =        3955, output OUT =        4939
# refmod: input A = 00000000000000000000001111011000, input B = 00000000000000000000111101110011, output OUT = 00000000000000000001001101001011
# UVM_INFO @ 1125: uvm_test_top.env_h.comp [Comparator Match] 
# adder: input A =         311, input B =        3030, output OUT =        3341
# adder: input A = 00000000000000000000000100110111, input B = 00000000000000000000101111010110, output OUT = 00000000000000000000110100001101
# refmod: input A =         311, input B =        3030, output OUT =        3341
# refmod: input A = 00000000000000000000000100110111, input B = 00000000000000000000101111010110, output OUT = 00000000000000000000110100001101
# UVM_INFO @ 1155: uvm_test_top.env_h.comp [Comparator Match] 
# adder: input A =         978, input B =        7286, output OUT =        8264
# adder: input A = 00000000000000000000001111010010, input B = 00000000000000000001110001110110, output OUT = 00000000000000000010000001001000
# refmod: input A =         978, input B =        7286, output OUT =        8264
# refmod: input A = 00000000000000000000001111010010, input B = 00000000000000000001110001110110, output OUT = 00000000000000000010000001001000
# UVM_INFO @ 1185: uvm_test_top.env_h.comp [Comparator Match] 
# adder: input A =         603, input B =        2111, output OUT =        2714
# adder: input A = 00000000000000000000001001011011, input B = 00000000000000000000100000111111, output OUT = 00000000000000000000101010011010
# refmod: input A =         603, input B =        2111, output OUT =        2714
# refmod: input A = 00000000000000000000001001011011, input B = 00000000000000000000100000111111, output OUT = 00000000000000000000101010011010
# UVM_INFO @ 1215: uvm_test_top.env_h.comp [Comparator Match] 
# adder: input A =         954, input B =        4620, output OUT =        5574
# adder: input A = 00000000000000000000001110111010, input B = 00000000000000000001001000001100, output OUT = 00000000000000000001010111000110
# refmod: input A =         954, input B =        4620, output OUT =        5574
# refmod: input A = 00000000000000000000001110111010, input B = 00000000000000000001001000001100, output OUT = 00000000000000000001010111000110
# UVM_INFO @ 1245: uvm_test_top.env_h.comp [Comparator Match] 
# adder: input A =         846, input B =        2346, output OUT =        3192
# adder: input A = 00000000000000000000001101001110, input B = 00000000000000000000100100101010, output OUT = 00000000000000000000110001111000
# refmod: input A =         846, input B =        2346, output OUT =        3192
# refmod: input A = 00000000000000000000001101001110, input B = 00000000000000000000100100101010, output OUT = 00000000000000000000110001111000
# UVM_INFO @ 1275: uvm_test_top.env_h.comp [Comparator Match] 
# adder: input A =         663, input B =        3170, output OUT =        3833
# adder: input A = 00000000000000000000001010010111, input B = 00000000000000000000110001100010, output OUT = 00000000000000000000111011111001
# refmod: input A =         663, input B =        3170, output OUT =        3833
# refmod: input A = 00000000000000000000001010010111, input B = 00000000000000000000110001100010, output OUT = 00000000000000000000111011111001
# UVM_INFO @ 1305: uvm_test_top.env_h.comp [Comparator Match] 
# adder: input A =         927, input B =        8422, output OUT =        9349
# adder: input A = 00000000000000000000001110011111, input B = 00000000000000000010000011100110, output OUT = 00000000000000000010010010000101
# refmod: input A =         927, input B =        8422, output OUT =        9349
# refmod: input A = 00000000000000000000001110011111, input B = 00000000000000000010000011100110, output OUT = 00000000000000000010010010000101
# UVM_INFO @ 1335: uvm_test_top.env_h.comp [Comparator Match] 
# adder: input A =         950, input B =        8205, output OUT =        9155
# adder: input A = 00000000000000000000001110110110, input B = 00000000000000000010000000001101, output OUT = 00000000000000000010001111000011
# refmod: input A =         950, input B =        8205, output OUT =        9155
# refmod: input A = 00000000000000000000001110110110, input B = 00000000000000000010000000001101, output OUT = 00000000000000000010001111000011
# UVM_INFO @ 1365: uvm_test_top.env_h.comp [Comparator Match] 
# adder: input A =         577, input B =        2460, output OUT =        3037
# adder: input A = 00000000000000000000001001000001, input B = 00000000000000000000100110011100, output OUT = 00000000000000000000101111011101
# refmod: input A =         577, input B =        2460, output OUT =        3037
# refmod: input A = 00000000000000000000001001000001, input B = 00000000000000000000100110011100, output OUT = 00000000000000000000101111011101
# UVM_INFO @ 1395: uvm_test_top.env_h.comp [Comparator Match] 
# adder: input A =         971, input B =          75, output OUT =        1046
# adder: input A = 00000000000000000000001111001011, input B = 00000000000000000000000001001011, output OUT = 00000000000000000000010000010110
# refmod: input A =         971, input B =          75, output OUT =        1046
# refmod: input A = 00000000000000000000001111001011, input B = 00000000000000000000000001001011, output OUT = 00000000000000000000010000010110
# UVM_INFO @ 1425: uvm_test_top.env_h.comp [Comparator Match] 
# adder: input A =         862, input B =        7598, output OUT =        8460
# adder: input A = 00000000000000000000001101011110, input B = 00000000000000000001110110101110, output OUT = 00000000000000000010000100001100
# refmod: input A =         862, input B =        7598, output OUT =        8460
# refmod: input A = 00000000000000000000001101011110, input B = 00000000000000000001110110101110, output OUT = 00000000000000000010000100001100
# UVM_INFO @ 1455: uvm_test_top.env_h.comp [Comparator Match] 
# adder: input A =         173, input B =        1330, output OUT =        1503
# adder: input A = 00000000000000000000000010101101, input B = 00000000000000000000010100110010, output OUT = 00000000000000000000010111011111
# refmod: input A =         173, input B =        1330, output OUT =        1503
# refmod: input A = 00000000000000000000000010101101, input B = 00000000000000000000010100110010, output OUT = 00000000000000000000010111011111
# UVM_INFO @ 1485: uvm_test_top.env_h.comp [Comparator Match] 
# adder: input A =         711, input B =        4271, output OUT =        4982
# adder: input A = 00000000000000000000001011000111, input B = 00000000000000000001000010101111, output OUT = 00000000000000000001001101110110
# refmod: input A =         711, input B =        4271, output OUT =        4982
# refmod: input A = 00000000000000000000001011000111, input B = 00000000000000000001000010101111, output OUT = 00000000000000000001001101110110
# UVM_INFO @ 1515: uvm_test_top.env_h.comp [Comparator Match] 
# adder: input A =         878, input B =        2691, output OUT =        3569
# adder: input A = 00000000000000000000001101101110, input B = 00000000000000000000101010000011, output OUT = 00000000000000000000110111110001
# refmod: input A =         878, input B =        2691, output OUT =        3569
# refmod: input A = 00000000000000000000001101101110, input B = 00000000000000000000101010000011, output OUT = 00000000000000000000110111110001
# UVM_INFO @ 1545: uvm_test_top.env_h.comp [Comparator Match] 
# adder: input A =         389, input B =        2723, output OUT =        3112
# adder: input A = 00000000000000000000000110000101, input B = 00000000000000000000101010100011, output OUT = 00000000000000000000110000101000
# refmod: input A =         389, input B =        2723, output OUT =        3112
# refmod: input A = 00000000000000000000000110000101, input B = 00000000000000000000101010100011, output OUT = 00000000000000000000110000101000
# UVM_INFO @ 1575: uvm_test_top.env_h.comp [Comparator Match] 
# adder: input A =         958, input B =        9106, output OUT =       10064
# adder: input A = 00000000000000000000001110111110, input B = 00000000000000000010001110010010, output OUT = 00000000000000000010011101010000
# refmod: input A =         958, input B =        9106, output OUT =       10064
# refmod: input A = 00000000000000000000001110111110, input B = 00000000000000000010001110010010, output OUT = 00000000000000000010011101010000
# UVM_INFO @ 1605: uvm_test_top.env_h.comp [Comparator Match] 
# adder: input A =         366, input B =         651, output OUT =        1017
# adder: input A = 00000000000000000000000101101110, input B = 00000000000000000000001010001011, output OUT = 00000000000000000000001111111001
# refmod: input A =         366, input B =         651, output OUT =        1017
# refmod: input A = 00000000000000000000000101101110, input B = 00000000000000000000001010001011, output OUT = 00000000000000000000001111111001
# UVM_INFO @ 1635: uvm_test_top.env_h.comp [Comparator Match] 
# adder: input A =         225, input B =        1280, output OUT =        1505
# adder: input A = 00000000000000000000000011100001, input B = 00000000000000000000010100000000, output OUT = 00000000000000000000010111100001
# refmod: input A =         225, input B =        1280, output OUT =        1505
# refmod: input A = 00000000000000000000000011100001, input B = 00000000000000000000010100000000, output OUT = 00000000000000000000010111100001
# UVM_INFO @ 1665: uvm_test_top.env_h.comp [Comparator Match] 
# adder: input A =         900, input B =        3997, output OUT =        4897
# adder: input A = 00000000000000000000001110000100, input B = 00000000000000000000111110011101, output OUT = 00000000000000000001001100100001
# refmod: input A =         900, input B =        3997, output OUT =        4897
# refmod: input A = 00000000000000000000001110000100, input B = 00000000000000000000111110011101, output OUT = 00000000000000000001001100100001
# UVM_INFO @ 1695: uvm_test_top.env_h.comp [Comparator Match] 
# adder: input A =         514, input B =        2733, output OUT =        3247
# adder: input A = 00000000000000000000001000000010, input B = 00000000000000000000101010101101, output OUT = 00000000000000000000110010101111
# refmod: input A =         514, input B =        2733, output OUT =        3247
# refmod: input A = 00000000000000000000001000000010, input B = 00000000000000000000101010101101, output OUT = 00000000000000000000110010101111
# UVM_INFO @ 1725: uvm_test_top.env_h.comp [Comparator Match] 
# adder: input A =         871, input B =        7178, output OUT =        8049
# adder: input A = 00000000000000000000001101100111, input B = 00000000000000000001110000001010, output OUT = 00000000000000000001111101110001
# refmod: input A =         871, input B =        7178, output OUT =        8049
# refmod: input A = 00000000000000000000001101100111, input B = 00000000000000000001110000001010, output OUT = 00000000000000000001111101110001
# UVM_INFO @ 1755: uvm_test_top.env_h.comp [Comparator Match] 
# adder: input A =         595, input B =        1207, output OUT =        1802
# adder: input A = 00000000000000000000001001010011, input B = 00000000000000000000010010110111, output OUT = 00000000000000000000011100001010
# refmod: input A =         595, input B =        1207, output OUT =        1802
# refmod: input A = 00000000000000000000001001010011, input B = 00000000000000000000010010110111, output OUT = 00000000000000000000011100001010
# UVM_INFO @ 1785: uvm_test_top.env_h.comp [Comparator Match] 
# adder: input A =         893, input B =        5133, output OUT =        6026
# adder: input A = 00000000000000000000001101111101, input B = 00000000000000000001010000001101, output OUT = 00000000000000000001011110001010
# refmod: input A =         893, input B =        5133, output OUT =        6026
# refmod: input A = 00000000000000000000001101111101, input B = 00000000000000000001010000001101, output OUT = 00000000000000000001011110001010
# UVM_INFO @ 1815: uvm_test_top.env_h.comp [Comparator Match] 
# adder: input A =         738, input B =        5220, output OUT =        5958
# adder: input A = 00000000000000000000001011100010, input B = 00000000000000000001010001100100, output OUT = 00000000000000000001011101000110
# refmod: input A =         738, input B =        5220, output OUT =        5958
# refmod: input A = 00000000000000000000001011100010, input B = 00000000000000000001010001100100, output OUT = 00000000000000000001011101000110
# UVM_INFO @ 1845: uvm_test_top.env_h.comp [Comparator Match] 
# adder: input A =         637, input B =        4062, output OUT =        4699
# adder: input A = 00000000000000000000001001111101, input B = 00000000000000000000111111011110, output OUT = 00000000000000000001001001011011
# refmod: input A =         637, input B =        4062, output OUT =        4699
# refmod: input A = 00000000000000000000001001111101, input B = 00000000000000000000111111011110, output OUT = 00000000000000000001001001011011
# UVM_INFO @ 1875: uvm_test_top.env_h.comp [Comparator Match] 
# adder: input A =         897, input B =        7853, output OUT =        8750
# adder: input A = 00000000000000000000001110000001, input B = 00000000000000000001111010101101, output OUT = 00000000000000000010001000101110
# refmod: input A =         897, input B =        7853, output OUT =        8750
# refmod: input A = 00000000000000000000001110000001, input B = 00000000000000000001111010101101, output OUT = 00000000000000000010001000101110
# UVM_INFO @ 1905: uvm_test_top.env_h.comp [Comparator Match] 
# adder: input A =         145, input B =         226, output OUT =         371
# adder: input A = 00000000000000000000000010010001, input B = 00000000000000000000000011100010, output OUT = 00000000000000000000000101110011
# refmod: input A =         145, input B =         226, output OUT =         371
# refmod: input A = 00000000000000000000000010010001, input B = 00000000000000000000000011100010, output OUT = 00000000000000000000000101110011
# UVM_INFO @ 1935: uvm_test_top.env_h.comp [Comparator Match] 
# adder: input A =         185, input B =        1228, output OUT =        1413
# adder: input A = 00000000000000000000000010111001, input B = 00000000000000000000010011001100, output OUT = 00000000000000000000010110000101
# refmod: input A =         185, input B =        1228, output OUT =        1413
# refmod: input A = 00000000000000000000000010111001, input B = 00000000000000000000010011001100, output OUT = 00000000000000000000010110000101
# UVM_INFO @ 1965: uvm_test_top.env_h.comp [Comparator Match] 
# adder: input A =         819, input B =         448, output OUT =        1267
# adder: input A = 00000000000000000000001100110011, input B = 00000000000000000000000111000000, output OUT = 00000000000000000000010011110011
# refmod: input A =         819, input B =         448, output OUT =        1267
# refmod: input A = 00000000000000000000001100110011, input B = 00000000000000000000000111000000, output OUT = 00000000000000000000010011110011
# UVM_INFO @ 1995: uvm_test_top.env_h.comp [Comparator Match] 
